<?xml version="1.0" encoding="utf-8"?>
<!-- Generator: Adobe Illustrator 22.0.0, SVG Export Plug-In . SVG Version: 6.00 Build 0)  -->
<svg version="1.1" id="图层_1" xmlns="http://www.w3.org/2000/svg" xmlns:xlink="http://www.w3.org/1999/xlink" x="0px" y="0px"
	 viewBox="0 0 504 586.8" style="enable-background:new 0 0 504 586.8;" xml:space="preserve">
<style type="text/css">
	.st0{fill:url(#SVGID_1_);}
	.st1{fill:#C9DEFF;}
	.st2{fill:url(#SVGID_2_);}
	.st3{fill:#F1F4FF;}
	.st4{fill:url(#SVGID_3_);}
	.st5{fill:url(#SVGID_4_);}
	.st6{fill:none;stroke:#FFFFFF;stroke-width:1.9729;stroke-linecap:round;stroke-miterlimit:10;}
	.st7{fill:none;stroke:#A4F1EF;stroke-width:1.9729;stroke-linecap:round;stroke-miterlimit:10;}
	.st8{fill:url(#SVGID_5_);}
	.st9{fill:#FFFFFF;}
	.st10{fill:url(#SVGID_6_);}
	.st11{fill:none;stroke:#FFFFFF;stroke-width:2.9593;stroke-linecap:round;stroke-miterlimit:10;}
	.st12{fill:url(#SVGID_7_);}
	.st13{fill:url(#SVGID_8_);}
	.st14{fill:url(#SVGID_9_);}
	.st15{fill:url(#SVGID_10_);}
	.st16{opacity:0.2;fill:url(#SVGID_11_);}
	.st17{opacity:0.2;fill:url(#SVGID_12_);}
	.st18{opacity:0.2;fill:url(#SVGID_13_);}
	.st19{fill:#E6F1FF;}
	.st20{opacity:0.7;fill:none;stroke:url(#XMLID_2_);stroke-width:1.322;stroke-miterlimit:10;enable-background:new    ;}
	.st21{opacity:0.7;fill:none;stroke:url(#XMLID_3_);stroke-width:1.322;stroke-miterlimit:10;enable-background:new    ;}
	.st22{fill:#D0E3FF;}
	.st23{opacity:0.2;fill:url(#SVGID_14_);enable-background:new    ;}
	.st24{opacity:0.2;fill:url(#SVGID_15_);enable-background:new    ;}
	.st25{opacity:0.2;fill:url(#SVGID_16_);enable-background:new    ;}
	
		.st26{opacity:0.7;fill:none;stroke:url(#SVGID_17_);stroke-width:3.966;stroke-linecap:round;stroke-linejoin:round;stroke-dasharray:0,13.2201;enable-background:new    ;}
	.st27{fill:url(#SVGID_18_);}
	.st28{fill:#120078;}
	.st29{fill:url(#SVGID_19_);fill-opacity:0.3;}
	.st30{opacity:0.2;fill:url(#SVGID_20_);enable-background:new    ;}
	.st31{fill:url(#SVGID_21_);}
	.st32{fill:#003FA1;}
	.st33{fill:#CADFFF;}
	
		.st34{opacity:0.7;fill:none;stroke:url(#SVGID_22_);stroke-width:3.966;stroke-linecap:round;stroke-linejoin:round;stroke-dasharray:0,13.2201;enable-background:new    ;}
	.st35{fill:url(#SVGID_23_);}
	.st36{fill:url(#SVGID_24_);fill-opacity:0.3;}
	.st37{opacity:0.2;fill:url(#SVGID_25_);enable-background:new    ;}
	.st38{fill:url(#SVGID_26_);}
	
		.st39{opacity:0.7;fill:none;stroke:url(#SVGID_27_);stroke-width:3.966;stroke-linecap:round;stroke-linejoin:round;stroke-dasharray:0,13.2201;enable-background:new    ;}
	.st40{fill:url(#SVGID_28_);}
	.st41{fill:#2446C7;}
	
		.st42{opacity:0.7;fill:none;stroke:url(#SVGID_29_);stroke-width:3.966;stroke-linecap:round;stroke-linejoin:round;enable-background:new    ;}
	.st43{fill:url(#SVGID_30_);}
	
		.st44{opacity:0.7;fill:none;stroke:url(#SVGID_31_);stroke-width:3.966;stroke-linecap:round;stroke-linejoin:round;enable-background:new    ;}
	.st45{fill:url(#SVGID_32_);}
	.st46{fill:#F1FFFF;}
	.st47{fill:url(#SVGID_33_);fill-opacity:6.000000e-02;}
	.st48{fill:url(#SVGID_34_);fill-opacity:0.1;}
	.st49{fill:url(#SVGID_35_);fill-opacity:0.3;}
	.st50{fill:url(#SVGID_36_);}
	.st51{fill:url(#SVGID_37_);fill-opacity:6.000000e-02;}
	.st52{fill:url(#SVGID_38_);fill-opacity:0.1;}
	.st53{fill:url(#SVGID_39_);fill-opacity:0.3;}
	.st54{fill:url(#SVGID_40_);}
	
		.st55{opacity:0.7;fill:none;stroke:url(#SVGID_41_);stroke-width:3.4129;stroke-linecap:round;stroke-linejoin:round;enable-background:new    ;}
	.st56{fill:url(#SVGID_42_);}
	.st57{fill:#0069FF;fill-opacity:5.000000e-02;}
	.st58{fill:#0069FF;fill-opacity:0.1;}
	
		.st59{opacity:0.7;fill:none;stroke:url(#SVGID_43_);stroke-width:3.4129;stroke-linecap:round;stroke-linejoin:round;stroke-dasharray:0,11.3765;enable-background:new    ;}
	.st60{fill:url(#SVGID_44_);}
	
		.st61{opacity:0.7;fill:none;stroke:url(#SVGID_45_);stroke-width:3.4129;stroke-linecap:round;stroke-linejoin:round;enable-background:new    ;}
	.st62{fill:url(#SVGID_46_);}
	.st63{fill:url(#SVGID_47_);}
	.st64{fill:url(#SVGID_48_);}
	.st65{fill:url(#SVGID_49_);}
	.st66{fill:url(#SVGID_50_);}
	.st67{fill:url(#SVGID_51_);}
	.st68{fill:url(#SVGID_52_);}
	.st69{filter:url(#Adobe_OpacityMaskFilter);}
	.st70{filter:url(#Adobe_OpacityMaskFilter_1_);}
	.st71{mask:url(#SVGID_53_);fill:url(#SVGID_54_);}
	.st72{fill:url(#SVGID_55_);}
	.st73{fill:url(#SVGID_56_);}
	.st74{fill:url(#SVGID_57_);}
	.st75{fill:url(#SVGID_58_);}
	.st76{fill:url(#SVGID_59_);}
	.st77{fill:url(#SVGID_60_);}
	.st78{opacity:0.5;fill:url(#SVGID_61_);enable-background:new    ;}
	.st79{opacity:0.5;fill:url(#SVGID_62_);enable-background:new    ;}
	.st80{opacity:0.5;fill:url(#SVGID_63_);enable-background:new    ;}
	.st81{opacity:0.5;fill:url(#SVGID_64_);enable-background:new    ;}
	.st82{filter:url(#Adobe_OpacityMaskFilter_2_);}
	.st83{filter:url(#Adobe_OpacityMaskFilter_3_);}
	.st84{mask:url(#SVGID_65_);fill:url(#SVGID_66_);}
	.st85{opacity:0.2;fill:url(#SVGID_67_);enable-background:new    ;}
	.st86{fill:url(#SVGID_68_);}
	.st87{fill:url(#SVGID_69_);}
	.st88{fill:url(#SVGID_70_);}
	.st89{fill:url(#SVGID_71_);}
	.st90{filter:url(#Adobe_OpacityMaskFilter_4_);}
	.st91{filter:url(#Adobe_OpacityMaskFilter_5_);}
	.st92{mask:url(#SVGID_72_);fill:url(#SVGID_73_);}
	.st93{fill:url(#SVGID_74_);}
	.st94{fill:url(#SVGID_75_);}
	.st95{fill:none;stroke:#000000;stroke-width:0.7869;stroke-miterlimit:10;}
	.st96{fill:url(#SVGID_76_);}
	.st97{fill:url(#SVGID_77_);}
	.st98{fill:url(#SVGID_78_);}
	.st99{fill:url(#SVGID_79_);}
	.st100{fill:url(#SVGID_80_);}
	.st101{fill:url(#SVGID_81_);}
	.st102{fill:url(#SVGID_82_);}
	.st103{fill:url(#SVGID_83_);}
	.st104{fill:url(#SVGID_84_);}
	.st105{fill:url(#SVGID_85_);}
	.st106{fill:url(#SVGID_86_);}
	.st107{fill:url(#SVGID_87_);}
	.st108{fill:url(#SVGID_88_);}
	.st109{fill:url(#SVGID_89_);}
	.st110{fill:url(#SVGID_90_);}
	.st111{fill:url(#SVGID_91_);}
	
		.st112{opacity:0.7;fill:none;stroke:url(#SVGID_92_);stroke-width:3.872;stroke-linecap:round;stroke-linejoin:round;stroke-dasharray:0,12.9066;enable-background:new    ;}
	.st113{fill:url(#SVGID_93_);}
	.st114{fill:url(#SVGID_94_);fill-opacity:0.3;}
	.st115{opacity:0.2;fill:url(#SVGID_95_);enable-background:new    ;}
	.st116{fill:url(#SVGID_96_);}
	
		.st117{opacity:0.7;fill:none;stroke:url(#SVGID_97_);stroke-width:3.872;stroke-linecap:round;stroke-linejoin:round;stroke-dasharray:0,12.9066;enable-background:new    ;}
	
		.st118{opacity:0.7;fill:none;stroke:url(#SVGID_98_);stroke-width:3.872;stroke-linecap:round;stroke-linejoin:round;enable-background:new    ;}
	
		.st119{opacity:0.7;fill:none;stroke:url(#SVGID_99_);stroke-width:3.872;stroke-linecap:round;stroke-linejoin:round;stroke-dasharray:0,12.9066;enable-background:new    ;}
	.st120{fill:url(#SVGID_100_);}
	.st121{fill:url(#SVGID_101_);}
	.st122{fill:url(#SVGID_102_);}
	.st123{fill:url(#SVGID_103_);}
	.st124{fill:url(#SVGID_104_);}
	.st125{fill:url(#SVGID_105_);}
	.st126{fill:url(#SVGID_106_);}
	.st127{fill:url(#SVGID_107_);}
	.st128{fill:url(#SVGID_108_);}
	.st129{filter:url(#Adobe_OpacityMaskFilter_6_);}
	.st130{filter:url(#Adobe_OpacityMaskFilter_7_);}
	.st131{mask:url(#SVGID_109_);fill:url(#SVGID_110_);}
	.st132{fill:url(#SVGID_111_);}
	.st133{fill:url(#SVGID_112_);}
	.st134{fill:url(#SVGID_113_);}
	.st135{fill:url(#SVGID_114_);}
	.st136{fill:url(#SVGID_115_);}
	.st137{fill:url(#SVGID_116_);}
	.st138{fill:url(#SVGID_117_);}
	.st139{fill:url(#SVGID_118_);}
	.st140{fill:url(#SVGID_119_);}
	.st141{fill:url(#SVGID_120_);}
	.st142{fill:url(#SVGID_121_);}
	.st143{filter:url(#Adobe_OpacityMaskFilter_8_);}
	.st144{filter:url(#Adobe_OpacityMaskFilter_9_);}
	.st145{mask:url(#SVGID_122_);fill:url(#SVGID_123_);}
	.st146{fill:url(#SVGID_124_);}
	.st147{fill:url(#SVGID_125_);}
	.st148{fill:none;stroke:#000000;stroke-width:1.2907;stroke-miterlimit:10;}
	.st149{fill:url(#SVGID_126_);}
	.st150{fill:url(#SVGID_127_);}
	.st151{fill:url(#SVGID_128_);}
	.st152{fill:url(#SVGID_129_);}
	.st153{fill:url(#SVGID_130_);}
	.st154{fill:url(#SVGID_131_);}
	.st155{fill:url(#SVGID_132_);}
	.st156{fill:url(#SVGID_133_);}
	.st157{fill:url(#SVGID_134_);}
	.st158{fill:url(#SVGID_135_);}
	.st159{fill:url(#SVGID_136_);}
	.st160{fill:url(#SVGID_137_);}
	.st161{fill:url(#SVGID_138_);}
	.st162{fill:url(#SVGID_139_);}
	.st163{fill:url(#SVGID_140_);}
	.st164{fill:url(#SVGID_141_);}
	
		.st165{opacity:0.7;fill:none;stroke:url(#SVGID_142_);stroke-width:3.872;stroke-linecap:round;stroke-linejoin:round;enable-background:new    ;}
	.st166{fill:url(#SVGID_143_);}
	
		.st167{opacity:0.7;fill:none;stroke:url(#SVGID_144_);stroke-width:3.7122;stroke-linecap:round;stroke-linejoin:round;stroke-dasharray:0,12.3739;enable-background:new    ;}
	.st168{fill:url(#SVGID_145_);}
	.st169{clip-path:url(#SVGID_147_);fill:#F9FBFF;}
	.st170{clip-path:url(#SVGID_147_);fill:#F8FAFF;}
	.st171{clip-path:url(#SVGID_147_);fill:#F7F9FF;}
	.st172{clip-path:url(#SVGID_147_);fill:#F6F9FF;}
	.st173{clip-path:url(#SVGID_147_);fill:#F4F8FF;}
	.st174{clip-path:url(#SVGID_147_);fill:#F3F8FF;}
	.st175{clip-path:url(#SVGID_147_);fill:#F2F7FF;}
	.st176{clip-path:url(#SVGID_147_);fill:#F1F6FF;}
	.st177{clip-path:url(#SVGID_147_);fill:#F0F6FF;}
	.st178{clip-path:url(#SVGID_147_);fill:#EFF5FF;}
	.st179{clip-path:url(#SVGID_147_);fill:#EEF5FF;}
	.st180{clip-path:url(#SVGID_147_);fill:#EDF4FF;}
	.st181{fill:url(#SVGID_148_);}
	.st182{opacity:0.256;}
	.st183{fill:url(#SVGID_149_);}
	.st184{fill:url(#SVGID_150_);}
	.st185{fill:url(#SVGID_151_);}
	
		.st186{opacity:0.7;fill:none;stroke:url(#SVGID_152_);stroke-width:3.7122;stroke-linecap:round;stroke-linejoin:round;stroke-dasharray:0,12.3739;enable-background:new    ;}
	.st187{fill:url(#SVGID_153_);}
	
		.st188{opacity:0.7;fill:none;stroke:url(#SVGID_154_);stroke-width:3.7122;stroke-linecap:round;stroke-linejoin:round;enable-background:new    ;}
	.st189{fill:url(#SVGID_155_);}
	.st190{fill:#DAC8FF;}
	.st191{fill:url(#SVGID_156_);}
	.st192{fill:url(#SVGID_157_);}
	.st193{opacity:0.5;fill:url(#SVGID_158_);enable-background:new    ;}
	.st194{fill:url(#SVGID_159_);}
	.st195{opacity:0.5;fill:url(#SVGID_160_);enable-background:new    ;}
	.st196{fill:url(#SVGID_161_);}
	.st197{opacity:0.5;fill:url(#SVGID_162_);enable-background:new    ;}
	.st198{fill:url(#SVGID_163_);}
	.st199{opacity:0.5;fill:url(#SVGID_164_);enable-background:new    ;}
	.st200{fill:url(#SVGID_165_);}
	.st201{fill:url(#SVGID_166_);}
	.st202{fill:url(#SVGID_167_);}
	.st203{fill:url(#SVGID_168_);}
	.st204{fill:url(#SVGID_169_);}
	.st205{opacity:0.5;fill:url(#SVGID_170_);enable-background:new    ;}
	.st206{fill:url(#SVGID_171_);}
	.st207{opacity:0.5;fill:url(#SVGID_172_);enable-background:new    ;}
	.st208{fill:url(#SVGID_173_);}
	.st209{opacity:0.5;fill:url(#SVGID_174_);enable-background:new    ;}
	.st210{fill:url(#SVGID_175_);}
	.st211{opacity:0.5;fill:url(#SVGID_176_);enable-background:new    ;}
	.st212{fill:url(#SVGID_177_);}
	.st213{fill:url(#SVGID_178_);}
	.st214{fill:url(#SVGID_179_);}
	.st215{fill:url(#SVGID_180_);}
	.st216{opacity:0.5;fill:url(#SVGID_181_);enable-background:new    ;}
	.st217{opacity:0.5;fill:url(#SVGID_182_);enable-background:new    ;}
	.st218{opacity:0.5;fill:url(#SVGID_183_);enable-background:new    ;}
	.st219{opacity:0.5;fill:url(#SVGID_184_);enable-background:new    ;}
	.st220{opacity:0.5;fill:url(#SVGID_185_);enable-background:new    ;}
	.st221{opacity:0.5;fill:url(#SVGID_186_);enable-background:new    ;}
	.st222{opacity:0.5;fill:url(#SVGID_187_);enable-background:new    ;}
	.st223{opacity:0.5;fill:url(#SVGID_188_);enable-background:new    ;}
	.st224{opacity:0.2;fill:url(#SVGID_189_);}
	.st225{opacity:0.2;fill:url(#SVGID_190_);}
	.st226{opacity:0.5;fill:url(#SVGID_191_);enable-background:new    ;}
	.st227{opacity:0.5;fill:url(#SVGID_192_);enable-background:new    ;}
	.st228{opacity:0.2;fill:url(#SVGID_193_);}
	.st229{opacity:0.2;fill:url(#SVGID_194_);}
	.st230{opacity:0.2;fill:url(#SVGID_195_);enable-background:new    ;}
	.st231{opacity:0.5;fill:url(#SVGID_196_);enable-background:new    ;}
	.st232{fill:url(#SVGID_197_);}
</style>
<g>
	<g>
		<defs>
			<filter id="Adobe_OpacityMaskFilter" filterUnits="userSpaceOnUse" x="415.5" y="454.9" width="85.5" height="45.5">
				<feFlood  style="flood-color:white;flood-opacity:1" result="back"/>
				<feBlend  in="SourceGraphic" in2="back" mode="normal"/>
			</filter>
		</defs>
		<mask maskUnits="userSpaceOnUse" x="415.5" y="454.9" width="85.5" height="45.5" id="SVGID_1_">
			<g class="st69">
				<defs>
					<filter id="Adobe_OpacityMaskFilter_1_" filterUnits="userSpaceOnUse" x="415.5" y="454.9" width="85.5" height="45.5">
						<feFlood  style="flood-color:white;flood-opacity:1" result="back"/>
						<feBlend  in="SourceGraphic" in2="back" mode="normal"/>
					</filter>
				</defs>
				<mask maskUnits="userSpaceOnUse" x="415.5" y="454.9" width="85.5" height="45.5" id="SVGID_1_">
				</mask>
				
					<linearGradient id="SVGID_2_" gradientUnits="userSpaceOnUse" x1="414.5527" y1="389.8968" x2="500.9491" y2="389.8968" gradientTransform="matrix(0.9914 4.980000e-02 -5.980000e-02 1.0057 27.7594 62.7391)">
					<stop  offset="0" style="stop-color:#666666"/>
					<stop  offset="5.604891e-02" style="stop-color:#737373"/>
					<stop  offset="0.2845" style="stop-color:#A5A5A5"/>
					<stop  offset="0.5004" style="stop-color:#CCCCCC"/>
					<stop  offset="0.6978" style="stop-color:#E8E8E8"/>
					<stop  offset="0.8702" style="stop-color:#F9F9F9"/>
					<stop  offset="0.9987" style="stop-color:#FFFFFF"/>
				</linearGradient>
				<path style="mask:url(#SVGID_1_);fill:url(#SVGID_2_);" d="M501,481.1l-4.1,5.4l-0.2,0.3l-2.5,3.3l-9.5-1.9
					c-1.6,1.1-3.5,2.1-5.5,3l3.6,4.4l0.4,0.5l-2.3,0.6l-14.4,3.4l-4.1-5c-2.5,0.2-5.1,0.2-7.7,0.1l-3.8,5.1l-15.6-3.1l-0.6-0.1
					l-0.7-0.1l0.1-0.2l3.7-5c-2.1-0.8-3.9-1.8-5.6-2.8l-9.5,2.2l-2.8-3.4l-4.4-5.4l3.8-0.9l5.6-1.3c-0.4-1.4-0.4-2.8-0.2-4.1
					l-5.6-1.1l-3.9-0.8l6.7-9l9.4,1.9c0.4-0.3,0.7-0.5,1.1-0.8c0.1-0.1,0.3-0.2,0.4-0.3c0.5-0.3,1-0.6,1.6-0.9
					c0.8-0.4,1.6-0.8,2.4-1.2l-0.5-0.6l-3.5-4.3l16.7-4l3.9,4.8c1-0.1,2-0.1,3.1-0.2c1.4,0,2.8,0,4.2,0c0.2,0,0.5,0,0.7,0l1-1.4
					l0.1-0.1l0.4-0.5l2.2-3l3.4,0.7l13.5,2.7l-3.7,4.9c1.2,0.5,2.3,1,3.3,1.5c0.9,0.5,1.7,0.9,2.4,1.4l9.1-2.2l7.2,8.8L496,474
					l-4.5,1.1c0.3,1.4,0.4,2.8,0.1,4.2l4.9,1L501,481.1z"/>
			</g>
		</mask>
		<path class="st58" d="M501,481.1l-4.1,5.4l-0.2,0.3l-2.5,3.3l-9.5-1.9c-1.6,1.1-3.5,2.1-5.5,3l3.6,4.4l0.4,0.5l-2.3,0.6l-14.4,3.4
			l-4.1-5c-2.5,0.2-5.1,0.2-7.7,0.1l-3.8,5.1l-15.6-3.1l-0.6-0.1l-0.7-0.1l0.1-0.2l3.7-5c-2.1-0.8-3.9-1.8-5.6-2.8l-9.5,2.2
			l-2.8-3.4l-4.4-5.4l3.8-0.9l5.6-1.3c-0.4-1.4-0.4-2.8-0.2-4.1l-5.6-1.1l-3.9-0.8l6.7-9l9.4,1.9c0.4-0.3,0.7-0.5,1.1-0.8
			c0.1-0.1,0.3-0.2,0.4-0.3c0.5-0.3,1-0.6,1.6-0.9c0.8-0.4,1.6-0.8,2.4-1.2l-0.5-0.6l-3.5-4.3l16.7-4l3.9,4.8c1-0.1,2-0.1,3.1-0.2
			c1.4,0,2.8,0,4.2,0c0.2,0,0.5,0,0.7,0l1-1.4l0.1-0.1l0.4-0.5l2.2-3l3.4,0.7l13.5,2.7l-3.7,4.9c1.2,0.5,2.3,1,3.3,1.5
			c0.9,0.5,1.7,0.9,2.4,1.4l9.1-2.2l7.2,8.8L496,474l-4.5,1.1c0.3,1.4,0.4,2.8,0.1,4.2l4.9,1L501,481.1z"/>
		<linearGradient id="SVGID_3_" gradientUnits="userSpaceOnUse" x1="416.1257" y1="467.3003" x2="501.6222" y2="467.3003">
			<stop  offset="0" style="stop-color:#E7F2FF"/>
			<stop  offset="1" style="stop-color:#D2E1FF"/>
		</linearGradient>
		<path class="st4" d="M501.6,470.8l-4.1,5.4l-0.2,0.3l-2.5,3.3l-9.5-1.9c-1.6,1.1-3.5,2.1-5.5,3l3.6,4.4l0.4,0.5l-2.3,0.6
			l-14.4,3.4l-4.1-5c-2.5,0.2-5.1,0.2-7.7,0.1l-3.8,5.1l-15.6-3.1l-0.6-0.1l-0.7-0.1l0.1-0.2l3.7-5c-2.1-0.8-3.9-1.8-5.6-2.8
			l-9.5,2.2l-2.8-3.4l-4.4-5.4l3.8-0.9l5.6-1.3c-0.4-1.4-0.4-2.7-0.2-4.1l-5.6-1.1l-3.9-0.8l6.7-9l9.4,1.9c0.4-0.3,0.7-0.5,1.1-0.8
			c0.1-0.1,0.3-0.2,0.4-0.3c0.5-0.3,1-0.6,1.6-0.9c0.8-0.4,1.6-0.8,2.4-1.2l-0.5-0.6l-3.5-4.3l16.7-4l3.9,4.8c1-0.1,2-0.1,3.1-0.2
			c1.4,0,2.8,0,4.2,0c0.2,0,0.5,0,0.7,0l1-1.4l0.1-0.1l0.4-0.5l2.2-3l3.4,0.7L483,448l-3.7,4.9c1.2,0.5,2.3,1,3.3,1.5
			c0.9,0.5,1.7,0.9,2.4,1.4l9.1-2.2l7.2,8.8l-4.8,1.1l-4.5,1.1c0.3,1.4,0.4,2.8,0.1,4.2l4.9,1L501.6,470.8z"/>
		
			<linearGradient id="SVGID_4_" gradientUnits="userSpaceOnUse" x1="449.9628" y1="451.0622" x2="477.0186" y2="451.0622" gradientTransform="matrix(0.9929 1.370000e-02 -2.420000e-02 1.0068 9.5157 6.921)">
			<stop  offset="0" style="stop-color:#89B9FF"/>
			<stop  offset="1" style="stop-color:#0260F3"/>
		</linearGradient>
		<path class="st5" d="M471.3,469.9c-2.7,3.7-10.6,5.5-17.5,4.1c-6.9-1.4-10.3-5.5-7.5-9.2c2.7-3.7,10.6-5.5,17.5-4.1
			C470.7,462.1,474,466.3,471.3,469.9z"/>
		<path class="st95" d="M483.6,485.3l1.5-1C484.6,484.7,484.1,485,483.6,485.3z"/>
		
			<linearGradient id="SVGID_5_" gradientUnits="userSpaceOnUse" x1="431.4052" y1="366.0573" x2="435.681" y2="366.0573" gradientTransform="matrix(0.9914 4.980000e-02 -5.980000e-02 1.0057 27.7594 62.7391)">
			<stop  offset="0" style="stop-color:#004DA9"/>
			<stop  offset="1" style="stop-color:#0029E8"/>
		</linearGradient>
		<path class="st8" d="M437.7,453.6c-0.8,0.4-1.7,0.8-2.4,1.2c-0.5,0.3-1.1,0.6-1.6,0.9c-0.1,0.1-0.3,0.2-0.4,0.3l0.4-7.2
			L437.7,453.6z"/>
		
			<linearGradient id="SVGID_6_" gradientUnits="userSpaceOnUse" x1="477.4814" y1="362.454" x2="480.8853" y2="362.454" gradientTransform="matrix(0.9914 4.980000e-02 -5.980000e-02 1.0057 27.7594 62.7391)">
			<stop  offset="0" style="stop-color:#004DA9"/>
			<stop  offset="1" style="stop-color:#0029E8"/>
		</linearGradient>
		<path class="st10" d="M483,448l-0.4,6.4c-1-0.5-2.1-1-3.3-1.5L483,448z"/>
		
			<linearGradient id="SVGID_7_" gradientUnits="userSpaceOnUse" x1="491.1046" y1="376.4735" x2="500.2458" y2="376.4735" gradientTransform="matrix(0.9914 4.980000e-02 -5.980000e-02 1.0057 27.7594 62.7391)">
			<stop  offset="0" style="stop-color:#004DA9"/>
			<stop  offset="1" style="stop-color:#0029E8"/>
		</linearGradient>
		<path class="st12" d="M501.4,462.5L501,469l-3.8,0.9l-4.9-1c0.3-1.4,0.3-2.8-0.1-4.2l4.5-1.1L501.4,462.5z"/>
		
			<linearGradient id="SVGID_8_" gradientUnits="userSpaceOnUse" x1="494.7122" y1="388.7757" x2="500.9488" y2="388.7757" gradientTransform="matrix(0.9914 4.980000e-02 -5.980000e-02 1.0057 27.7594 62.7391)">
			<stop  offset="0" style="stop-color:#89B9FF"/>
			<stop  offset="1" style="stop-color:#0260F3"/>
		</linearGradient>
		<polygon class="st13" points="501.6,470.8 501.2,477.3 494.5,486.3 494.9,479.8 497.4,476.5 		"/>
		
			<linearGradient id="SVGID_9_" gradientUnits="userSpaceOnUse" x1="485.075" y1="392.697" x2="494.7125" y2="392.697" gradientTransform="matrix(0.9914 4.980000e-02 -5.980000e-02 1.0057 27.7594 62.7391)">
			<stop  offset="0" style="stop-color:#004DA9"/>
			<stop  offset="1" style="stop-color:#0029E8"/>
		</linearGradient>
		<polygon class="st14" points="494.9,479.8 494.5,486.3 485,484.4 485.4,477.9 		"/>
		
			<linearGradient id="SVGID_10_" gradientUnits="userSpaceOnUse" x1="479.7339" y1="392.4919" x2="485.0753" y2="392.4919" gradientTransform="matrix(0.9914 4.980000e-02 -5.980000e-02 1.0057 27.7594 62.7391)">
			<stop  offset="0" style="stop-color:#89B9FF"/>
			<stop  offset="1" style="stop-color:#0260F3"/>
		</linearGradient>
		<path class="st15" d="M485.4,477.9l-0.4,6.5l-1.5,1l-3.6-4.4C481.9,480,483.8,479,485.4,477.9z"/>
		
			<linearGradient id="SVGID_11_" gradientUnits="userSpaceOnUse" x1="467.5301" y1="402.3201" x2="484.0982" y2="402.3201" gradientTransform="matrix(0.9914 4.980000e-02 -5.980000e-02 1.0057 27.7594 62.7391)">
			<stop  offset="0" style="stop-color:#89B9FF"/>
			<stop  offset="1" style="stop-color:#0260F3"/>
		</linearGradient>
		<polygon style="fill:url(#SVGID_11_);" points="484,485.8 483.6,492.3 466.9,496.3 467.3,489.8 481.6,486.4 		"/>
		
			<linearGradient id="SVGID_12_" gradientUnits="userSpaceOnUse" x1="463.1295" y1="402.3231" x2="467.5304" y2="402.3231" gradientTransform="matrix(0.9914 4.980000e-02 -5.980000e-02 1.0057 27.7594 62.7391)">
			<stop  offset="0" style="stop-color:#004DA9"/>
			<stop  offset="1" style="stop-color:#0029E8"/>
		</linearGradient>
		<polygon style="fill:url(#SVGID_12_);" points="467.3,489.8 466.9,496.3 462.8,491.3 463.2,484.8 		"/>
		
			<linearGradient id="SVGID_13_" gradientUnits="userSpaceOnUse" x1="455.359" y1="400.1975" x2="463.1298" y2="400.1975" gradientTransform="matrix(0.9914 4.980000e-02 -5.980000e-02 1.0057 27.7594 62.7391)">
			<stop  offset="0" style="stop-color:#89B9FF"/>
			<stop  offset="1" style="stop-color:#0260F3"/>
		</linearGradient>
		<path style="fill:url(#SVGID_13_);" d="M463.2,484.8l-0.4,6.5c-2.5,0.2-5.1,0.2-7.7,0.1l0.4-6.5C458,485,460.6,485,463.2,484.8z"
			/>
		
			<linearGradient id="SVGID_14_" gradientUnits="userSpaceOnUse" x1="451.8139" y1="403.0842" x2="455.3594" y2="403.0842" gradientTransform="matrix(0.9914 4.980000e-02 -5.980000e-02 1.0057 27.7594 62.7391)">
			<stop  offset="0" style="stop-color:#004DA9"/>
			<stop  offset="1" style="stop-color:#0029E8"/>
		</linearGradient>
		<polygon style="fill:url(#SVGID_14_);" points="455.4,484.9 455.1,491.4 451.2,496.5 451.6,490 		"/>
		
			<linearGradient id="SVGID_15_" gradientUnits="userSpaceOnUse" x1="432.4146" y1="395.9722" x2="438.1659" y2="395.9722" gradientTransform="matrix(0.9914 4.980000e-02 -5.980000e-02 1.0057 27.7594 62.7391)">
			<stop  offset="0" style="stop-color:#89B9FF"/>
			<stop  offset="1" style="stop-color:#0260F3"/>
		</linearGradient>
		<path style="fill:url(#SVGID_15_);" d="M438.6,481.5l-3.7,5c-0.8-0.4-1.5-0.8-2.2-1.3l0.4-6.5
			C434.6,479.7,436.5,480.7,438.6,481.5z"/>
		
			<linearGradient id="SVGID_16_" gradientUnits="userSpaceOnUse" x1="434.6182" y1="404.4453" x2="451.8143" y2="404.4453" gradientTransform="matrix(0.9914 4.980000e-02 -5.980000e-02 1.0057 27.7594 62.7391)">
			<stop  offset="0" style="stop-color:#89B9FF"/>
			<stop  offset="1" style="stop-color:#0260F3"/>
		</linearGradient>
		<polygon style="fill:url(#SVGID_16_);" points="451.6,490 451.2,496.5 434.3,493.1 434.7,486.6 435.4,486.7 436.1,486.9 		"/>
		
			<linearGradient id="SVGID_17_" gradientUnits="userSpaceOnUse" x1="423.0073" y1="396.7404" x2="432.415" y2="396.7404" gradientTransform="matrix(0.9914 4.980000e-02 -5.980000e-02 1.0057 27.7594 62.7391)">
			<stop  offset="0" style="stop-color:#004DA9"/>
			<stop  offset="1" style="stop-color:#0029E8"/>
		</linearGradient>
		<polygon style="fill:url(#SVGID_17_);" points="433,478.7 432.6,485.2 423.1,487.4 423.5,480.9 		"/>
		
			<linearGradient id="SVGID_18_" gradientUnits="userSpaceOnUse" x1="415.2578" y1="393.9089" x2="423.0075" y2="393.9089" gradientTransform="matrix(0.9914 4.980000e-02 -5.980000e-02 1.0057 27.7594 62.7391)">
			<stop  offset="0" style="stop-color:#89B9FF"/>
			<stop  offset="1" style="stop-color:#0260F3"/>
		</linearGradient>
		<polygon class="st27" points="423.5,480.9 423.1,487.4 415.9,478.6 416.3,472.1 420.7,477.5 		"/>
		
			<linearGradient id="SVGID_19_" gradientUnits="userSpaceOnUse" x1="414.5546" y1="381.8515" x2="424.5904" y2="381.8515" gradientTransform="matrix(0.9914 4.980000e-02 -5.980000e-02 1.0057 27.7594 62.7391)">
			<stop  offset="0" style="stop-color:#004DA9"/>
			<stop  offset="1" style="stop-color:#0029E8"/>
		</linearGradient>
		<path style="fill:url(#SVGID_19_);" d="M425.7,469.9l-5.6,1.3l-4.4-0.9l0.4-6.5l3.9,0.8l5.6,1.1
			C425.3,467.1,425.4,468.5,425.7,469.9z"/>
		<linearGradient id="SVGID_20_" gradientUnits="userSpaceOnUse" x1="433.7791" y1="460.3949" x2="501.6222" y2="460.3949">
			<stop  offset="0" style="stop-color:#E7F2FF"/>
			<stop  offset="1" style="stop-color:#D2E1FF"/>
		</linearGradient>
		<path style="fill:url(#SVGID_20_);" d="M501.6,470.8l-4.1,5.4c-19-18-41.7-22.9-60.3-23.2l-3.5-4.3l16.7-4l3.9,4.8
			c1-0.1,2-0.1,3.1-0.2c1.4,0,2.8,0,4.2,0c0.2,0,0.5,0,0.7,0l1-1.4l0.1-0.1l0.4-0.5l2.2-3l3.4,0.7L483,448l-3.7,4.9
			c1.2,0.5,2.3,1,3.3,1.5c0.9,0.5,1.7,0.9,2.4,1.4l9.1-2.2l7.2,8.8l-4.8,1.1l-4.5,1.1c0.3,1.4,0.4,2.8,0.1,4.2l4.9,1L501.6,470.8z"
			/>
	</g>
	<g>
		
			<linearGradient id="SVGID_21_" gradientUnits="userSpaceOnUse" x1="-4357.2773" y1="556.6927" x2="-4357.2773" y2="555.6257" gradientTransform="matrix(0.5 0 0 50.5 2326.9604 -27908.8867)">
			<stop  offset="0" style="stop-color:#89B9FF;stop-opacity:0"/>
			<stop  offset="1" style="stop-color:#89B9FF"/>
		</linearGradient>
		
			<path style="opacity:0.7;fill:none;stroke:url(#SVGID_21_);stroke-width:3.872;stroke-linecap:round;stroke-linejoin:round;stroke-dasharray:0,12.9066;enable-background:new    ;" d="
			M148.6,150.2l-0.6,65.2"/>
		
			<linearGradient id="SVGID_22_" gradientUnits="userSpaceOnUse" x1="-1563.6012" y1="503.8737" x2="-1564.8918" y2="505.1643" gradientTransform="matrix(9 0 0 9 14226.8633 -4405.9468)">
			<stop  offset="0" style="stop-color:#E4EFFF"/>
			<stop  offset="1" style="stop-color:#FFFFFF"/>
		</linearGradient>
		<circle style="fill:url(#SVGID_22_);" cx="148.6" cy="134.7" r="5.8"/>
		<circle class="st28" cx="148.5" cy="134.6" r="3.1"/>
		
			<linearGradient id="SVGID_23_" gradientUnits="userSpaceOnUse" x1="-1425.2198" y1="573.9085" x2="-1424.0286" y2="573.5563" gradientTransform="matrix(60 0 0 -89 85611.2813 51130.9375)">
			<stop  offset="0" style="stop-color:#89B9FF"/>
			<stop  offset="1" style="stop-color:#0260F3"/>
		</linearGradient>
		<path style="fill:url(#SVGID_23_);fill-opacity:0.3;" d="M166.5,10.6c1.9-1.1,3.4,0.1,3.4,2.6v63.9c0,2.5-1.5,5.4-3.4,6.5
			l-70.6,41c-1.9,1.1-3.4-0.1-3.4-2.6V58.1c0-2.5,1.5-5.4,3.4-6.5L166.5,10.6z"/>
		
			<linearGradient id="SVGID_24_" gradientUnits="userSpaceOnUse" x1="-1425.4349" y1="573.9958" x2="-1424.2437" y2="573.6436" gradientTransform="matrix(60 0 0 -89 85611.2813 51130.9375)">
			<stop  offset="0" style="stop-color:#89B9FF"/>
			<stop  offset="1" style="stop-color:#0260F3"/>
		</linearGradient>
		<path style="opacity:0.2;fill:url(#SVGID_24_);enable-background:new    ;" d="M153.6,2.8c1.9-1.1,3.4,0.1,3.4,2.6v63.9
			c0,2.5-1.5,5.4-3.4,6.5l-70.6,41c-1.9,1.1-3.4-0.1-3.4-2.6V50.4c0-2.5,1.5-5.4,3.4-6.5L153.6,2.8z"/>
		
			<linearGradient id="SVGID_25_" gradientUnits="userSpaceOnUse" x1="-1425.2836" y1="573.9302" x2="-1423.9929" y2="573.5362" gradientTransform="matrix(60 0 0 -89 85620.2813 51135.9375)">
			<stop  offset="0" style="stop-color:#89B9FF"/>
			<stop  offset="1" style="stop-color:#0260F3"/>
		</linearGradient>
		<path style="fill:url(#SVGID_25_);" d="M178.2,17c1.9-1.1,3.4,0.1,3.4,2.6v63.9c0,2.5-1.5,5.4-3.4,6.5l-70.6,41
			c-1.9,1.1-3.4-0.1-3.4-2.6V64.6c0-2.5,1.5-5.4,3.4-6.5L178.2,17z"/>
		<path class="st32" d="M115.4,64.1l34-19.9c0.5-0.3,1,0,1,0.7v2.6c0,0.7-0.4,1.6-1,1.9l-34,19.9c-0.5,0.3-1,0-1-0.7V66
			C114.4,65.3,114.9,64.5,115.4,64.1z"/>
		<path class="st9" d="M124.7,71.5l33.4-19.9c0.5-0.3,1,0,1,0.7V55c0,0.7-0.4,1.6-1,1.9l-33.4,19.9c-0.5,0.3-1,0-1-0.7v-2.6
			C123.7,72.7,124.1,71.8,124.7,71.5z"/>
		<path class="st33" d="M115.4,89.7L138,76.6c0.5-0.3,1,0,1,0.7V80c0,0.7-0.4,1.6-1,1.9L115.4,95c-0.5,0.3-1,0-1-0.7v-2.6
			C114.4,90.9,114.9,90,115.4,89.7z"/>
		<path class="st9" d="M119.3,100l22.5-13.2c0.5-0.3,1,0,1,0.7v2.6c0,0.7-0.4,1.6-1,1.9l-22.5,13.2c-0.5,0.3-1,0-1-0.7v-2.6
			C118.3,101.2,118.8,100.4,119.3,100z"/>
		<path class="st28" d="M146.4,84.6l22.5-13.2c0.5-0.3,1,0,1,0.7v2.6c0,0.7-0.4,1.6-1,1.9l-22.5,13.2c-0.5,0.3-1,0-1-0.7v-2.6
			C145.4,85.7,145.9,84.9,146.4,84.6z"/>
		<path class="st9" d="M163.7,49.7l4.9-2.8c0.5-0.3,1,0,1,0.7v2.6c0,0.7-0.4,1.6-1,1.9l-4.9,2.8c-0.5,0.3-1,0-1-0.7v-2.6
			C162.7,50.8,163.2,50,163.7,49.7z"/>
	</g>
	
		<linearGradient id="SVGID_26_" gradientUnits="userSpaceOnUse" x1="4980.7603" y1="562.7686" x2="4980.7603" y2="561.7015" gradientTransform="matrix(0.25 0 0 40.5 -856.0944 -22528.0527)">
		<stop  offset="0" style="stop-color:#89B9FF;stop-opacity:0"/>
		<stop  offset="1" style="stop-color:#89B9FF"/>
	</linearGradient>
	
		<path style="opacity:0.7;fill:none;stroke:url(#SVGID_26_);stroke-width:3.872;stroke-linecap:round;stroke-linejoin:round;stroke-dasharray:0,12.9066;enable-background:new    ;" d="
		M389.3,220.9l-0.3,52.3"/>
	
		<linearGradient id="SVGID_27_" gradientUnits="userSpaceOnUse" x1="4338.125" y1="559.9195" x2="4338.125" y2="558.6288" gradientTransform="matrix(0.25 0 0 50.5 -781.8444 -28127.8867)">
		<stop  offset="0" style="stop-color:#89B9FF;stop-opacity:0"/>
		<stop  offset="1" style="stop-color:#89B9FF"/>
	</linearGradient>
	
		<path style="opacity:0.7;fill:none;stroke:url(#SVGID_27_);stroke-width:3.872;stroke-linecap:round;stroke-linejoin:round;enable-background:new    ;" d="
		M302.5,82.9l0.3,65.2"/>
	<g>
		
			<linearGradient id="SVGID_28_" gradientUnits="userSpaceOnUse" x1="1636.6201" y1="566.1978" x2="1636.6201" y2="564.9487" gradientTransform="matrix(0.5 0 0 70.043 -359.7296 -39190.0859)">
			<stop  offset="0" style="stop-color:#89B9FF;stop-opacity:0"/>
			<stop  offset="1" style="stop-color:#89B9FF"/>
		</linearGradient>
		
			<path style="opacity:0.7;fill:none;stroke:url(#SVGID_28_);stroke-width:3.872;stroke-linecap:round;stroke-linejoin:round;stroke-dasharray:0,12.9066;enable-background:new    ;" d="
			M458.9,380.6l-0.6,90.4"/>
		
			<linearGradient id="SVGID_29_" gradientUnits="userSpaceOnUse" x1="-1310.007" y1="559.0046" x2="-1311.2976" y2="560.2953" gradientTransform="matrix(17 0 0 17 22739.3477 -9150.8145)">
			<stop  offset="0" style="stop-color:#E4EFFF"/>
			<stop  offset="1" style="stop-color:#FFFFFF"/>
		</linearGradient>
		<circle style="fill:url(#SVGID_29_);" cx="458.3" cy="363.2" r="11"/>
		<circle class="st41" cx="458.3" cy="363.2" r="5.8"/>
	</g>
	
		<linearGradient id="SVGID_30_" gradientUnits="userSpaceOnUse" x1="-1305.4777" y1="554.3181" x2="-1306.7683" y2="555.6088" gradientTransform="matrix(17 0 0 17 22593.3477 -9234.8145)">
		<stop  offset="0" style="stop-color:#E4EFFF"/>
		<stop  offset="1" style="stop-color:#FFFFFF"/>
	</linearGradient>
	<circle class="st43" cx="389.3" cy="199.6" r="11"/>
	<circle class="st41" cx="389.3" cy="199.6" r="5.8"/>
	
		<linearGradient id="SVGID_31_" gradientUnits="userSpaceOnUse" x1="-1239.9266" y1="520.7567" x2="-1241.2173" y2="522.0474" gradientTransform="matrix(9 0 0 9 11467.6738 -4623.9468)">
		<stop  offset="0" style="stop-color:#E4EFFF"/>
		<stop  offset="1" style="stop-color:#FFFFFF"/>
	</linearGradient>
	<circle style="fill:url(#SVGID_31_);" cx="302.5" cy="68.7" r="5.8"/>
	<circle class="st41" cx="302.5" cy="68.7" r="3.1"/>
	<ellipse class="st46" cx="326" cy="90.3" rx="3.8" ry="3.7"/>
	<g>
		<linearGradient id="SVGID_32_" gradientUnits="userSpaceOnUse" x1="149.4078" y1="535.2452" x2="376.8372" y2="535.2452">
			<stop  offset="0" style="stop-color:#89B9FF"/>
			<stop  offset="1" style="stop-color:#0260F3"/>
		</linearGradient>
		<path class="st45" d="M376.8,485.1V517c0,2.1-0.2,4.1-0.5,6.1c-5.1,34.9-53.9,62.2-113.2,62.2c-59.4,0-108.1-27.3-113.2-62.2
			c-0.3-2-0.5-4.1-0.5-6.1v-31.9c0,5.5,1.1,10.8,3.1,15.9c0.8,2.1,1.8,4.2,3,6.2c15.3,26.9,57.7,46.3,107.6,46.3
			c49.9,0,92.3-19.3,107.6-46.3c1.1-2,2.1-4.1,3-6.2C375.7,495.9,376.8,490.6,376.8,485.1z"/>
		<path class="st3" d="M376.8,485.1c0,5.5-1.1,10.8-3.1,16c-12,30.1-57,52.4-110.6,52.4c-53.6,0-98.6-22.3-110.6-52.4
			c-2.1-5.1-3.1-10.5-3.1-16c0-37.8,50.9-68.4,113.7-68.4C325.9,416.7,376.8,447.3,376.8,485.1z"/>
		<linearGradient id="SVGID_33_" gradientUnits="userSpaceOnUse" x1="234.0594" y1="565.8107" x2="240.1776" y2="565.8107">
			<stop  offset="0" style="stop-color:#E7F2FF"/>
			<stop  offset="1" style="stop-color:#D2E1FF"/>
		</linearGradient>
		<path style="fill:url(#SVGID_33_);" d="M240.2,565.8c0,3.3-1.4,6-3.1,6s-3.1-2.7-3.1-6c0-3.3,1.4-6,3.1-6S240.2,562.5,240.2,565.8
			z"/>
		<linearGradient id="SVGID_34_" gradientUnits="userSpaceOnUse" x1="261.6366" y1="568.9841" x2="270.0808" y2="568.9841">
			<stop  offset="0" style="stop-color:#E7F2FF"/>
			<stop  offset="1" style="stop-color:#D2E1FF"/>
		</linearGradient>
		<path style="fill:url(#SVGID_34_);" d="M270.1,569c0,3.3-1.9,6-4.2,6c-2.3,0-4.2-2.7-4.2-6c0-3.3,1.9-6,4.2-6
			C268.2,563,270.1,565.7,270.1,569z"/>
		<linearGradient id="SVGID_35_" gradientUnits="userSpaceOnUse" x1="291.8682" y1="565.9813" x2="299.0841" y2="565.9813">
			<stop  offset="0" style="stop-color:#E7F2FF"/>
			<stop  offset="1" style="stop-color:#D2E1FF"/>
		</linearGradient>
		<ellipse style="fill:url(#SVGID_35_);" cx="295.5" cy="566" rx="3.6" ry="6"/>
		<linearGradient id="SVGID_36_" gradientUnits="userSpaceOnUse" x1="186.6607" y1="485.1021" x2="336.6127" y2="485.1021">
			<stop  offset="0" style="stop-color:#E7F2FF"/>
			<stop  offset="1" style="stop-color:#D2E1FF"/>
		</linearGradient>
		<path class="st50" d="M336.6,485.1c0,3.6-0.7,7.1-2.1,10.5c-7.9,19.8-37.6,34.5-72.9,34.5c-35.4,0-65-14.7-72.9-34.5
			c-1.4-3.4-2.1-6.9-2.1-10.5c0-24.9,33.6-45.1,75-45.1C303,440,336.6,460.2,336.6,485.1z"/>
		<linearGradient id="SVGID_37_" gradientUnits="userSpaceOnUse" x1="216.3981" y1="485.1102" x2="306.875" y2="485.1102">
			<stop  offset="0" style="stop-color:#6AACFF"/>
			<stop  offset="1" style="stop-color:#005EFF"/>
		</linearGradient>
		<path style="fill:url(#SVGID_37_);" d="M306.9,485.1c0,2.2-0.4,4.3-1.2,6.4c-4.8,12-22.7,20.8-44,20.8c-21.3,0-39.2-8.9-44-20.8
			c-0.8-2-1.2-4.2-1.2-6.4c0-15,20.3-27.2,45.2-27.2C286.6,457.9,306.9,470.1,306.9,485.1z"/>
		<path class="st3" d="M284.3,485.1c0,1.1-0.2,2.2-0.6,3.2c-2.4,6-11.3,10.4-22,10.4c-10.7,0-19.6-4.4-22-10.4
			c-0.4-1-0.6-2.1-0.6-3.2c0-7.5,10.1-13.6,22.6-13.6C274.1,471.5,284.3,477.6,284.3,485.1z"/>
		<defs>
			<filter id="Adobe_OpacityMaskFilter_2_" filterUnits="userSpaceOnUse" x="186.7" y="237.2" width="150" height="293">
				<feFlood  style="flood-color:white;flood-opacity:1" result="back"/>
				<feBlend  in="SourceGraphic" in2="back" mode="normal"/>
			</filter>
		</defs>
		<mask maskUnits="userSpaceOnUse" x="186.7" y="237.2" width="150" height="293" id="SVGID_38_">
			<g class="st82">
				<defs>
					<filter id="Adobe_OpacityMaskFilter_3_" filterUnits="userSpaceOnUse" x="186.7" y="237.2" width="150" height="293">
						<feFlood  style="flood-color:white;flood-opacity:1" result="back"/>
						<feBlend  in="SourceGraphic" in2="back" mode="normal"/>
					</filter>
				</defs>
				<mask maskUnits="userSpaceOnUse" x="186.7" y="237.2" width="150" height="293" id="SVGID_38_">
				</mask>
				<linearGradient id="SVGID_39_" gradientUnits="userSpaceOnUse" x1="261.6899" y1="333.2415" x2="261.4044" y2="483.1933">
					<stop  offset="0" style="stop-color:#000000"/>
					<stop  offset="7.891655e-03" style="stop-color:#020202"/>
					<stop  offset="0.1513" style="stop-color:#282828"/>
					<stop  offset="0.3006" style="stop-color:#484848"/>
					<stop  offset="0.4552" style="stop-color:#616161"/>
					<stop  offset="0.6171" style="stop-color:#727272"/>
					<stop  offset="0.7915" style="stop-color:#7C7C7C"/>
					<stop  offset="1" style="stop-color:#808080"/>
				</linearGradient>
				<path style="mask:url(#SVGID_38_);fill:url(#SVGID_39_);" d="M336.6,237.2v247.9c0,3.6-0.7,7.1-2.1,10.5
					c-7.9,19.8-37.6,34.5-72.9,34.5c-35.4,0-65-14.7-72.9-34.5c-1.4-3.4-2.1-6.9-2.1-10.5V237.2c0,3.6,0.7,7.1,2.1,10.5
					c7.9,19.8,37.5,34.5,72.9,34.5c35.4,0,65-14.7,72.9-34.5C335.9,244.3,336.6,240.8,336.6,237.2z"/>
			</g>
		</mask>
		<linearGradient id="SVGID_40_" gradientUnits="userSpaceOnUse" x1="261.6367" y1="287.0096" x2="261.6367" y2="521.5216">
			<stop  offset="0" style="stop-color:#E7EDFF;stop-opacity:0"/>
			<stop  offset="0.1689" style="stop-color:#C9DCFF;stop-opacity:0.1689"/>
			<stop  offset="0.3516" style="stop-color:#B1CEFF;stop-opacity:0.3516"/>
			<stop  offset="0.5443" style="stop-color:#A0C5FF;stop-opacity:0.5443"/>
			<stop  offset="0.7518" style="stop-color:#95BFFF;stop-opacity:0.7518"/>
			<stop  offset="1" style="stop-color:#92BDFF"/>
		</linearGradient>
		<path class="st54" d="M336.6,237.2v247.9c0,3.6-0.7,7.1-2.1,10.5c-7.9,19.8-37.6,34.5-72.9,34.5c-35.4,0-65-14.7-72.9-34.5
			c-1.4-3.4-2.1-6.9-2.1-10.5V237.2c0,3.6,0.7,7.1,2.1,10.5c7.9,19.8,37.5,34.5,72.9,34.5c35.4,0,65-14.7,72.9-34.5
			C335.9,244.3,336.6,240.8,336.6,237.2z"/>
		<g>
			<linearGradient id="SVGID_41_" gradientUnits="userSpaceOnUse" x1="263.116" y1="317.4875" x2="263.116" y2="503.7056">
				<stop  offset="0" style="stop-color:#E6F0FF;stop-opacity:0"/>
				<stop  offset="1" style="stop-color:#CADFFF"/>
			</linearGradient>
			<path style="fill:url(#SVGID_41_);" d="M376.1,417.5c-0.5-1.5-1.1-3-1.7-4.5c-1.4-3.1-3.1-6.1-5.1-9c-0.6-0.8-1.2-1.7-1.8-2.5
				c-7.2-9.4-17.8-17.7-30.9-24.2v3.1c12.4,6.4,22.4,14.4,29.2,23.5c0.6,0.8,1.2,1.7,1.8,2.5c2.4,3.5,4.2,7.2,5.5,11.1
				c0.5,1.5,0.9,3,1.3,4.5c0.7,2.9,1,5.9,1,9c0,5.2-1,10.4-3,15.4c-5.4,13.6-18,25.9-35.8,35.1c-1,0.6-2.1,1.1-3.2,1.6
				c-20.1,9.7-44.4,14.8-70.3,14.8c-25.9,0-50.2-5.1-70.3-14.8c-2.1-1-4.2-2.1-6.1-3.2c-16.2-9-27.7-20.7-32.8-33.5
				c-2-5-3-10.2-3-15.4c0-3.1,0.3-6.1,1-9c0.3-1.5,0.8-3,1.3-4.5c1.3-3.8,3.2-7.5,5.5-11.1c0.6-0.8,1.1-1.7,1.8-2.5
				c6.2-8.3,15.2-15.8,26.2-21.9v-3.2c-11.7,6.3-21.2,14-27.9,22.7c-0.6,0.8-1.2,1.6-1.8,2.5c-2,2.9-3.7,5.9-5.1,9
				c-0.7,1.5-1.2,3-1.7,4.5c-1.4,4.4-2.2,8.9-2.2,13.5c0,5.6,1.1,11.2,3.2,16.5c5.7,14.3,18.3,26.6,35.5,35.8
				c20.5,11,47.4,17.5,76.4,17.5c27.7,0,53.4-5.9,73.5-16c18.6-9.3,32.4-22.2,38.4-37.3c2.1-5.3,3.2-10.9,3.2-16.5
				C378.3,426.4,377.5,421.9,376.1,417.5z"/>
		</g>
		<g>
			<linearGradient id="SVGID_42_" gradientUnits="userSpaceOnUse" x1="263.116" y1="317.4875" x2="263.116" y2="503.7056">
				<stop  offset="0" style="stop-color:#E6F0FF;stop-opacity:0"/>
				<stop  offset="1" style="stop-color:#CADFFF"/>
			</linearGradient>
			<path class="st56" d="M376.1,390.5c-0.5-1.5-1.1-3-1.7-4.5c-6.2-14.2-19.7-26.6-37.8-35.7v3.1c18.3,9.5,31.4,22.4,36.5,37
				c0.5,1.5,0.9,3,1.3,4.5c0.7,2.9,1,5.9,1,9c0,3-0.3,6.1-1,9c-0.3,1.5-0.8,3-1.3,4.5c-0.2,0.6-0.5,1.3-0.7,1.9
				c-5.4,13.6-18,25.9-35.8,35.1c-1,0.6-2.1,1.1-3.2,1.6c-20.1,9.7-44.4,14.8-70.3,14.8c-25.9,0-50.2-5.1-70.3-14.8
				c-2.1-1-4.2-2.1-6.1-3.2c-16.2-9-27.7-20.7-32.8-33.5c-0.3-0.6-0.5-1.3-0.7-1.9c-0.5-1.5-0.9-3-1.3-4.5c-0.7-3-1-6-1-9
				c0-3.1,0.3-6.1,1-9c0.3-1.5,0.8-3,1.3-4.5c4.8-13.8,16.8-26.1,33.5-35.4v-3.2c-16.6,8.9-28.9,20.7-34.8,34.1
				c-0.7,1.5-1.2,3-1.7,4.5c-1.4,4.4-2.2,8.9-2.2,13.5c0,4.6,0.7,9.1,2.2,13.6c0.3,1,0.7,2,1.1,2.9c0.2,0.5,0.4,1,0.6,1.5
				c6,13.6,18.3,25.4,34.8,34.3c20.5,11,47.4,17.5,76.4,17.5c27.7,0,53.4-5.9,73.5-16c18-9,31.4-21.3,37.8-35.8
				c0.2-0.5,0.4-1,0.7-1.6c0.4-1,0.7-1.9,1.1-2.9c1.4-4.4,2.2-9,2.2-13.6C378.3,399.3,377.5,394.8,376.1,390.5z"/>
		</g>
		<g>
			<linearGradient id="SVGID_43_" gradientUnits="userSpaceOnUse" x1="263.116" y1="317.4875" x2="263.116" y2="503.7056">
				<stop  offset="0" style="stop-color:#E6F0FF;stop-opacity:0"/>
				<stop  offset="1" style="stop-color:#CADFFF"/>
			</linearGradient>
			<path style="fill:url(#SVGID_43_);" d="M336.6,323.2v3.1c23.7,12.3,38.8,30.4,38.8,50.6c0,3-0.3,6.1-1,9.1
				c-0.3,1.5-0.8,3-1.3,4.5c-0.2,0.6-0.5,1.3-0.7,1.9c-1.3,3.1-2.9,6.2-4.9,9.2c-0.5,0.8-1.1,1.6-1.7,2.4c-6.7,9-16.7,17-29.2,23.5
				c-1,0.6-2.1,1.1-3.2,1.6c-20.1,9.7-44.4,14.8-70.3,14.8c-25.9,0-50.2-5.1-70.3-14.8c-2.1-1-4.2-2.1-6.1-3.2
				c-11.1-6.2-20.1-13.7-26.2-22c-0.6-0.8-1.2-1.6-1.7-2.4c-2-3-3.6-6.1-4.9-9.2c-0.3-0.6-0.5-1.3-0.7-1.9c-0.5-1.5-0.9-3-1.3-4.5
				c-0.7-3-1-6-1-9c0-19.3,13.8-36.8,35.8-49v-3.2c-23.7,12.8-38.7,31.4-38.7,52.1c0,4.6,0.7,9.1,2.2,13.6c0.3,1,0.7,2,1.1,2.9
				c0.2,0.5,0.4,1,0.6,1.5c1.4,3.1,3.1,6.2,5.1,9.1c0.6,0.8,1.1,1.6,1.7,2.4c6.7,8.8,16.3,16.5,28,22.8c20.5,11,47.4,17.5,76.4,17.5
				c27.7,0,53.4-5.9,73.5-16c13-6.5,23.7-14.8,31-24.3c0.6-0.8,1.2-1.6,1.7-2.4c2-2.9,3.7-5.9,5.1-9.1c0.2-0.5,0.4-1,0.7-1.6
				c0.4-1,0.7-1.9,1.1-2.9c1.4-4.4,2.2-9,2.2-13.6C378.3,355.3,362,336,336.6,323.2z"/>
		</g>
		<g>
			<g>
				<linearGradient id="SVGID_44_" gradientUnits="userSpaceOnUse" x1="220.7843" y1="272.5802" x2="303.1117" y2="272.5802">
					<stop  offset="0" style="stop-color:#89B9FF"/>
					<stop  offset="1" style="stop-color:#0260F3"/>
				</linearGradient>
				<path class="st60" d="M294,258c-0.2,1.6-0.4,3.2-0.7,4.8c-0.4,2.3-0.8,4.6-1.2,6.8c-1.4,6.8-3.2,13-5.3,18.4
					c-0.8,2.2-1.7,4.2-2.6,6.1c-6.4,13.4-14.6,21.1-22.6,21.1c-8,0-16.2-7.7-22.6-21.1c-2.3,1-4.6,1.9-6.9,2.7
					c7.5,15.6,17.8,25,29.4,25c11.6,0,22-9.5,29.4-25.1c1-1.9,1.8-4,2.7-6.1c2.6-6.6,4.7-14.1,6.3-22.2c0.4-2.2,0.8-4.5,1.1-6.9
					c0.6-3.8,1-7.7,1.3-11.7C299.8,252.7,297,255.3,294,258z M303.1,231.5c-2.5-2.7-5.2-5.4-8-8.2c0.3,3.9,0.4,7.9,0.4,12
					c0,4.1-0.1,8.1-0.4,12c2.9-2.7,5.5-5.5,8-8.2c0-1.3,0-2.5,0-3.8C303.1,234,303.1,232.7,303.1,231.5z M231.2,269.6
					c-0.5-2.2-0.9-4.4-1.2-6.8c-0.3-1.6-0.5-3.2-0.7-4.8c-3-2.7-5.8-5.3-8.5-8c0.3,4,0.7,7.9,1.3,11.7c0.3,2.3,0.7,4.6,1.1,6.9
					c1.6,8.1,3.7,15.6,6.3,22.2c2.2-0.8,4.5-1.7,6.9-2.8C234.4,282.5,232.6,276.4,231.2,269.6z"/>
				<linearGradient id="SVGID_45_" gradientUnits="userSpaceOnUse" x1="220.1982" y1="198.0118" x2="302.5255" y2="198.0118">
					<stop  offset="0" style="stop-color:#89B9FF"/>
					<stop  offset="1" style="stop-color:#0260F3"/>
				</linearGradient>
				<path style="fill:url(#SVGID_45_);" d="M302.5,220.6c-2.7-2.7-5.5-5.4-8.5-8c-0.2-1.6-0.4-3.2-0.7-4.8c-0.4-2.3-0.8-4.6-1.2-6.8
					c-1.4-6.8-3.2-13-5.3-18.4c-0.8-2.2-1.7-4.2-2.6-6.2c-6.4-13.4-14.6-21.1-22.6-21.1c-8,0-16.2,7.7-22.6,21.1
					c-0.9,1.9-1.8,4-2.6,6.2c-2.1,5.5-3.9,11.6-5.3,18.4c-0.5,2.2-0.9,4.5-1.2,6.8c-0.3,1.6-0.5,3.2-0.7,4.8c-0.5,3.4-0.8,7-1,10.7
					c-0.3,3.9-0.4,7.9-0.4,12c0,4.1,0.1,8.1,0.4,12c-2.8-2.8-5.5-5.5-8-8.2c0-1.3,0-2.5,0-3.8s0-2.6,0-3.9c0.1-3.7,0.2-7.3,0.5-10.9
					c0.3-4,0.7-7.9,1.3-11.7c0.3-2.3,0.7-4.6,1.1-6.8c1.6-8.1,3.7-15.6,6.3-22.2c0.9-2.1,1.7-4.1,2.7-6.1c7.5-15.6,17.8-25,29.4-25
					c11.6,0,22,9.5,29.4,25.1c1,1.9,1.8,4,2.7,6.1c2.6,6.6,4.7,14.1,6.3,22.2c0.4,2.2,0.8,4.5,1.1,6.8
					C301.8,212.7,302.2,216.6,302.5,220.6z"/>
			</g>
		</g>
		<g>
			<g>
				<linearGradient id="SVGID_46_" gradientUnits="userSpaceOnUse" x1="309.0219" y1="153.9641" x2="175.2232" y2="268.4028">
					<stop  offset="0" style="stop-color:#89B9FF"/>
					<stop  offset="1" style="stop-color:#0260F3"/>
				</linearGradient>
				<path class="st62" d="M212.1,229.7c1.5,1.8,3,3.7,4.7,5.6c1.1-1.3,2.3-2.6,3.5-3.9c0.1-3.7,0.2-7.3,0.5-10.9
					C217.7,223.6,214.8,226.7,212.1,229.7z M255.2,192.4c-3.5,2.3-7,4.8-10.5,7.5c-3.1,2.3-6.2,4.8-9.2,7.3c-1,0.9-2.1,1.8-3.1,2.7
					c-1.1,0.9-2.1,1.8-3.1,2.7c-0.5,3.4-0.8,7-1,10.7c3-2.9,6.2-5.8,9.5-8.7c3.4-2.9,6.7-5.7,10.1-8.3c3.2-2.5,6.3-4.8,9.4-6.9
					c1.5-1,3-2,4.4-3C259.5,195,257.3,193.6,255.2,192.4z M284.2,176.4c-7.3,3.1-14.8,7-22.6,11.8c2.1,1.3,4.2,2.7,6.4,4.1
					c6.5-4,12.9-7.2,18.8-9.8C286,180.4,285.1,178.4,284.2,176.4z"/>
				<linearGradient id="SVGID_47_" gradientUnits="userSpaceOnUse" x1="330.1812" y1="178.7029" x2="196.3824" y2="293.1416">
					<stop  offset="0" style="stop-color:#89B9FF"/>
					<stop  offset="1" style="stop-color:#0260F3"/>
				</linearGradient>
				<path class="st63" d="M332.7,209.8c-0.9,1.9-1.9,3.9-3.1,5.9c-3.5,6.3-8.1,12.9-13.6,19.6c-1.5,1.8-3.1,3.7-4.7,5.6
					c-2.7,3-5.6,6.1-8.7,9.1c-2.7,2.7-5.5,5.4-8.5,8c-1,0.9-2,1.8-3.1,2.7c-1.1,0.9-2.1,1.8-3.1,2.7c-3.1,2.6-6.2,5-9.2,7.3
					c-3.5,2.7-7,5.2-10.6,7.5c-2.1,1.4-4.3,2.8-6.4,4.1c-5.2,3.2-10.4,6.1-15.4,8.5c-2.4,1.2-4.8,2.3-7.1,3.3
					c-2.3,1-4.6,1.9-6.9,2.7c-9,3.2-17.3,4.9-24.3,4.9c-7,0-12.8-1.7-16.9-5.2c-8.2-7.1-7.8-20.2-0.4-35.7c0.9-1.9,2-3.9,3.1-5.9
					c3.5-6.3,8.1-12.8,13.6-19.5c1.5,1.8,3.1,3.7,4.8,5.6c-4.6,5.7-8.3,11.1-11.3,16.3c-1.2,2.1-2.2,4-3.2,5.9
					c-6.5,13.4-6.9,23.8-1.2,28.7c5.6,4.9,17.7,4.5,33.1-1.1c2.2-0.8,4.5-1.7,6.9-2.8c5.9-2.6,12.2-5.8,18.8-9.8
					c2.1-1.3,4.3-2.6,6.4-4c1.5-1,3-2,4.4-3c3.1-2.2,6.2-4.5,9.4-6.9c3.3-2.6,6.7-5.3,10.1-8.3c3.4-2.9,6.5-5.8,9.5-8.7
					c2.9-2.7,5.5-5.5,8-8.2c1.2-1.3,2.3-2.5,3.4-3.8c1.7-1.9,3.2-3.7,4.7-5.6c4.6-5.7,8.3-11.1,11.3-16.2c1.2-2.1,2.2-4,3.2-6
					c3.4-7.2,5.2-13.5,5.2-18.6c0-4.4-1.3-7.9-3.9-10.2c-2.6-2.3-6.7-3.4-11.8-3.4c-5.9,0-13.1,1.5-21.4,4.5
					c-0.8-2.1-1.7-4.1-2.7-6.1c18-6.5,33-6.8,41.2,0.3C340.5,181.2,340.1,194.2,332.7,209.8z"/>
			</g>
		</g>
		<g>
			<g>
				<linearGradient id="SVGID_48_" gradientUnits="userSpaceOnUse" x1="184.9324" y1="235.2854" x2="338.3408" y2="235.2854">
					<stop  offset="0" style="stop-color:#89B9FF"/>
					<stop  offset="1" style="stop-color:#0260F3"/>
				</linearGradient>
				<path class="st64" d="M191,174.1c-4.1,3.6-6.1,8.6-6.1,14.7c0,6.1,2,13.3,5.7,21.1c0.9,1.9,2,3.9,3.1,5.9
					c2.2-0.8,4.6-1.5,7.1-2.3c-1.2-2-2.2-4-3.2-5.9c-6.5-13.4-6.9-23.8-1.2-28.7c5.6-4.9,17.7-4.5,33.1,1.1c0.9-2.1,1.7-4.1,2.7-6.1
					C214.2,167.3,199.2,167,191,174.1z M332.7,260.8c-0.9-1.9-1.9-3.9-3.1-5.9c-3.5-6.3-8.1-12.8-13.6-19.5
					c-1.5,1.8-3.1,3.7-4.7,5.6c4.6,5.7,8.3,11.1,11.3,16.2c1.2,2.1,2.2,4,3.2,6c6.4,13.4,6.9,23.8,1.2,28.7
					c-5.6,4.9-17.7,4.5-33.2-1.1c-2.2-0.8-4.5-1.7-6.9-2.7c-5.9-2.6-12.2-5.8-18.8-9.8c-2.1,1.4-4.3,2.8-6.4,4.1
					c7.7,4.8,15.3,8.7,22.6,11.8c2.3,1,4.6,1.9,6.8,2.7c9,3.2,17.3,4.9,24.3,4.9c7,0,12.8-1.7,16.9-5.2
					C340.5,289.4,340.1,276.3,332.7,260.8z"/>
				<linearGradient id="SVGID_49_" gradientUnits="userSpaceOnUse" x1="236.4389" y1="205.8716" x2="311.1955" y2="205.8716">
					<stop  offset="0" style="stop-color:#89B9FF"/>
					<stop  offset="1" style="stop-color:#0260F3"/>
				</linearGradient>
				<path class="st65" d="M311.2,229.7c-1.5,1.8-3,3.7-4.7,5.6c-1.1-1.3-2.2-2.5-3.4-3.8c-2.5-2.7-5.2-5.4-8-8.2
					c-3-2.9-6.1-5.8-9.5-8.7c-3.4-2.9-6.7-5.7-10.1-8.3c-3.2-2.5-6.3-4.8-9.4-6.9c-1.5-1-3-2-4.4-3c-2.2-1.4-4.3-2.8-6.4-4
					c-6.5-4-12.8-7.2-18.8-9.8c0.8-2.2,1.7-4.2,2.6-6.2c7.2,3.1,14.8,7,22.6,11.8c2.1,1.3,4.2,2.7,6.4,4.1c3.5,2.3,7,4.8,10.6,7.5
					c3.1,2.3,6.2,4.8,9.2,7.3c1,0.9,2.1,1.8,3.1,2.7c1,0.9,2.1,1.8,3.1,2.7c3,2.7,5.8,5.4,8.5,8
					C305.6,223.7,308.5,226.7,311.2,229.7z"/>
				<linearGradient id="SVGID_50_" gradientUnits="userSpaceOnUse" x1="193.7244" y1="245.827" x2="261.6427" y2="245.827">
					<stop  offset="0" style="stop-color:#89B9FF"/>
					<stop  offset="1" style="stop-color:#0260F3"/>
				</linearGradient>
				<path class="st66" d="M261.6,274.2c-2.1,1.4-4.3,2.8-6.4,4c-3.5-2.3-7-4.8-10.5-7.5c-3.1-2.3-6.2-4.8-9.2-7.3
					c-1-0.9-2.1-1.8-3.1-2.7c-1.1-0.9-2.1-1.8-3.1-2.7c-3-2.7-5.8-5.3-8.5-8c-3.1-3-6-6.1-8.7-9.1c-1.7-1.9-3.2-3.7-4.8-5.6
					c-5.5-6.7-10.1-13.3-13.6-19.6c2.2-0.8,4.6-1.5,7.1-2.3c3,5.1,6.7,10.6,11.3,16.3c1.5,1.8,3,3.7,4.7,5.6
					c1.1,1.3,2.3,2.5,3.5,3.8c2.5,2.7,5.2,5.4,8,8.2c3,2.9,6.2,5.8,9.5,8.7c3.4,2.9,6.7,5.7,10.1,8.3c3.2,2.5,6.3,4.8,9.4,6.9
					C258.7,272.2,260.2,273.2,261.6,274.2z"/>
			</g>
		</g>
	</g>
	<g>
		<defs>
			<filter id="Adobe_OpacityMaskFilter_4_" filterUnits="userSpaceOnUse" x="-0.1" y="354.9" width="140.2" height="74.6">
				<feFlood  style="flood-color:white;flood-opacity:1" result="back"/>
				<feBlend  in="SourceGraphic" in2="back" mode="normal"/>
			</filter>
		</defs>
		<mask maskUnits="userSpaceOnUse" x="-0.1" y="354.9" width="140.2" height="74.6" id="SVGID_51_">
			<g class="st90">
				<defs>
					<filter id="Adobe_OpacityMaskFilter_5_" filterUnits="userSpaceOnUse" x="-0.1" y="354.9" width="140.2" height="74.6">
						<feFlood  style="flood-color:white;flood-opacity:1" result="back"/>
						<feBlend  in="SourceGraphic" in2="back" mode="normal"/>
					</filter>
				</defs>
				<mask maskUnits="userSpaceOnUse" x="-0.1" y="354.9" width="140.2" height="74.6" id="SVGID_51_">
				</mask>
				
					<linearGradient id="SVGID_52_" gradientUnits="userSpaceOnUse" x1="-8.6298" y1="324.4938" x2="133.0838" y2="324.4938" gradientTransform="matrix(0.9914 4.980000e-02 -5.980000e-02 1.0057 27.7594 62.7391)">
					<stop  offset="0" style="stop-color:#666666"/>
					<stop  offset="5.604891e-02" style="stop-color:#737373"/>
					<stop  offset="0.2845" style="stop-color:#A5A5A5"/>
					<stop  offset="0.5004" style="stop-color:#CCCCCC"/>
					<stop  offset="0.6978" style="stop-color:#E8E8E8"/>
					<stop  offset="0.8702" style="stop-color:#F9F9F9"/>
					<stop  offset="0.9987" style="stop-color:#FFFFFF"/>
				</linearGradient>
				<path style="mask:url(#SVGID_51_);fill:url(#SVGID_52_);" d="M140.2,397.9l-6.7,8.9l-0.3,0.4l-4.1,5.4l-15.5-3.1
					c-2.7,1.8-5.7,3.5-9,4.9l5.9,7.3l0.7,0.8l-3.9,0.9l-23.6,5.6l-6.7-8.2c-4.2,0.3-8.4,0.4-12.7,0.2l-6.3,8.4l-25.5-5.2l-1-0.2
					l-1.2-0.2l0.2-0.3l6.1-8.2c-3.4-1.4-6.4-2.9-9.1-4.6L12,414.5l-4.6-5.6l-7.2-8.8l6.3-1.5l9.2-2.2c-0.6-2.2-0.7-4.5-0.2-6.8
					l-9.2-1.9l-6.4-1.3L11,371.7l15.4,3.1c0.6-0.4,1.2-0.8,1.9-1.2c0.2-0.1,0.4-0.3,0.7-0.4c0.8-0.5,1.7-1,2.6-1.5
					c1.3-0.7,2.6-1.3,4-1.9l-0.8-1l-5.7-7l27.4-6.5l6.4,7.9c1.7-0.1,3.4-0.2,5-0.3c2.3-0.1,4.6-0.1,7,0c0.4,0,0.8,0,1.2,0l1.7-2.3
					l0.1-0.2l0.6-0.8l3.6-4.9l5.6,1.1l22.1,4.5l-6,8.1c1.9,0.8,3.7,1.6,5.4,2.5c1.4,0.7,2.8,1.5,4,2.3l15-3.6l11.8,14.4l-7.8,1.8
					l-7.3,1.7c0.6,2.3,0.6,4.6,0.1,6.9l8.1,1.6L140.2,397.9z"/>
			</g>
		</mask>
		<path class="st58" d="M140.2,397.9l-6.7,8.9l-0.3,0.4l-4.1,5.4l-15.5-3.1c-2.7,1.8-5.7,3.5-9,4.9l5.9,7.3l0.7,0.8l-3.9,0.9
			l-23.6,5.6l-6.7-8.2c-4.2,0.3-8.4,0.4-12.7,0.2l-6.3,8.4l-25.5-5.2l-1-0.2l-1.2-0.2l0.2-0.3l6.1-8.2c-3.4-1.4-6.4-2.9-9.1-4.6
			L12,414.5l-4.6-5.6l-7.2-8.8l6.3-1.5l9.2-2.2c-0.6-2.2-0.7-4.5-0.2-6.8l-9.2-1.9l-6.4-1.3L11,371.7l15.4,3.1
			c0.6-0.4,1.2-0.8,1.9-1.2c0.2-0.1,0.4-0.3,0.7-0.4c0.8-0.5,1.7-1,2.6-1.5c1.3-0.7,2.6-1.3,4-1.9l-0.8-1l-5.7-7l27.4-6.5l6.4,7.9
			c1.7-0.1,3.4-0.2,5-0.3c2.3-0.1,4.6-0.1,7,0c0.4,0,0.8,0,1.2,0l1.7-2.3l0.1-0.2l0.6-0.8l3.6-4.9l5.6,1.1l22.1,4.5l-6,8.1
			c1.9,0.8,3.7,1.6,5.4,2.5c1.4,0.7,2.8,1.5,4,2.3l15-3.6l11.8,14.4l-7.8,1.8l-7.3,1.7c0.6,2.3,0.6,4.6,0.1,6.9l8.1,1.6L140.2,397.9
			z"/>
		<linearGradient id="SVGID_53_" gradientUnits="userSpaceOnUse" x1="0.9384" y1="375.198" x2="141.1759" y2="375.198">
			<stop  offset="0" style="stop-color:#E7F2FF"/>
			<stop  offset="1" style="stop-color:#D2E1FF"/>
		</linearGradient>
		<path style="fill:url(#SVGID_53_);" d="M141.2,380.9l-6.7,8.9l-0.3,0.4l-4.1,5.4l-15.5-3.1c-2.7,1.8-5.7,3.5-9,4.9l5.9,7.3
			l0.7,0.8l-3.9,0.9l-23.6,5.6l-6.7-8.2c-4.2,0.3-8.4,0.4-12.7,0.2l-6.3,8.4l-25.5-5.2l-1-0.2l-1.2-0.2l0.2-0.3l6.1-8.2
			c-3.4-1.4-6.4-2.9-9.1-4.6l-15.6,3.7l-4.6-5.6l-7.2-8.8l6.3-1.5l9.2-2.2c-0.6-2.2-0.7-4.5-0.2-6.8l-9.2-1.9l-6.4-1.3L12,354.7
			l15.4,3.1c0.6-0.4,1.2-0.8,1.9-1.2c0.2-0.1,0.4-0.3,0.7-0.4c0.8-0.5,1.7-1,2.6-1.5c1.3-0.7,2.6-1.3,4-1.9l-0.8-1l-5.7-7l27.4-6.5
			l6.4,7.9c1.7-0.1,3.4-0.2,5-0.3c2.3-0.1,4.6-0.1,7,0c0.4,0,0.8,0,1.2,0l1.7-2.3l0.1-0.2l0.6-0.8l3.6-4.9l5.6,1.1l22.1,4.5l-6,8.1
			c1.9,0.8,3.7,1.6,5.4,2.5c1.4,0.7,2.8,1.5,4,2.3l15-3.6l11.8,14.4l-7.8,1.8l-7.3,1.7c0.6,2.3,0.6,4.6,0.1,6.9l8.1,1.6L141.2,380.9
			z"/>
		
			<linearGradient id="SVGID_54_" gradientUnits="userSpaceOnUse" x1="48.5657" y1="364.9896" x2="92.9445" y2="364.9896" gradientTransform="matrix(0.9929 1.370000e-02 -2.420000e-02 1.0068 9.5157 6.921)">
			<stop  offset="0" style="stop-color:#89B9FF"/>
			<stop  offset="1" style="stop-color:#0260F3"/>
		</linearGradient>
		<path style="fill:url(#SVGID_54_);" d="M91.4,379.5c-4.5,6-17.3,9.1-28.6,6.8c-11.3-2.3-16.8-9-12.3-15.1c4.5-6,17.3-9.1,28.6-6.8
			C90.4,366.7,95.9,373.5,91.4,379.5z"/>
		<path class="st148" d="M111.5,404.7l2.4-1.6C113.2,403.7,112.4,404.2,111.5,404.7z"/>
		
			<linearGradient id="SVGID_55_" gradientUnits="userSpaceOnUse" x1="19.0129" y1="285.3905" x2="26.0264" y2="285.3905" gradientTransform="matrix(0.9914 4.980000e-02 -5.980000e-02 1.0057 27.7594 62.7391)">
			<stop  offset="0" style="stop-color:#004DA9"/>
			<stop  offset="1" style="stop-color:#0029E8"/>
		</linearGradient>
		<path class="st72" d="M36.4,352.8c-1.4,0.6-2.7,1.3-4,1.9c-0.9,0.5-1.7,1-2.6,1.5c-0.2,0.1-0.4,0.3-0.7,0.4l0.7-11.8L36.4,352.8z"
			/>
		
			<linearGradient id="SVGID_56_" gradientUnits="userSpaceOnUse" x1="94.5904" y1="279.4801" x2="100.1738" y2="279.4801" gradientTransform="matrix(0.9914 4.980000e-02 -5.980000e-02 1.0057 27.7594 62.7391)">
			<stop  offset="0" style="stop-color:#004DA9"/>
			<stop  offset="1" style="stop-color:#0029E8"/>
		</linearGradient>
		<path class="st73" d="M110.7,343.5l-0.6,10.5c-1.7-0.9-3.5-1.7-5.4-2.5L110.7,343.5z"/>
		
			<linearGradient id="SVGID_57_" gradientUnits="userSpaceOnUse" x1="116.9363" y1="302.4759" x2="131.9302" y2="302.4759" gradientTransform="matrix(0.9914 4.980000e-02 -5.980000e-02 1.0057 27.7594 62.7391)">
			<stop  offset="0" style="stop-color:#004DA9"/>
			<stop  offset="1" style="stop-color:#0029E8"/>
		</linearGradient>
		<path class="st74" d="M140.8,367.3l-0.6,10.6l-6.3,1.5l-8.1-1.6c0.5-2.3,0.4-4.6-0.1-6.9l7.3-1.7L140.8,367.3z"/>
		
			<linearGradient id="SVGID_58_" gradientUnits="userSpaceOnUse" x1="122.8536" y1="322.6548" x2="133.0834" y2="322.6548" gradientTransform="matrix(0.9914 4.980000e-02 -5.980000e-02 1.0057 27.7594 62.7391)">
			<stop  offset="0" style="stop-color:#89B9FF"/>
			<stop  offset="1" style="stop-color:#0260F3"/>
		</linearGradient>
		<polygon class="st75" points="141.2,380.9 140.5,391.5 129.5,406.3 130.1,395.7 134.2,390.2 		"/>
		
			<linearGradient id="SVGID_59_" gradientUnits="userSpaceOnUse" x1="107.0459" y1="329.0868" x2="122.8541" y2="329.0868" gradientTransform="matrix(0.9914 4.980000e-02 -5.980000e-02 1.0057 27.7594 62.7391)">
			<stop  offset="0" style="stop-color:#004DA9"/>
			<stop  offset="1" style="stop-color:#0029E8"/>
		</linearGradient>
		<polygon class="st76" points="130.1,395.7 129.5,406.3 114,403.2 114.6,392.5 		"/>
		
			<linearGradient id="SVGID_60_" gradientUnits="userSpaceOnUse" x1="98.2852" y1="328.7503" x2="107.0465" y2="328.7503" gradientTransform="matrix(0.9914 4.980000e-02 -5.980000e-02 1.0057 27.7594 62.7391)">
			<stop  offset="0" style="stop-color:#89B9FF"/>
			<stop  offset="1" style="stop-color:#0260F3"/>
		</linearGradient>
		<path class="st77" d="M114.6,392.5l-0.6,10.6l-2.4,1.6l-5.9-7.3C108.9,396,111.9,394.4,114.6,392.5z"/>
		
			<linearGradient id="SVGID_61_" gradientUnits="userSpaceOnUse" x1="78.2675" y1="344.8712" x2="105.4438" y2="344.8712" gradientTransform="matrix(0.9914 4.980000e-02 -5.980000e-02 1.0057 27.7594 62.7391)">
			<stop  offset="0" style="stop-color:#89B9FF"/>
			<stop  offset="1" style="stop-color:#0260F3"/>
		</linearGradient>
		<polygon style="fill:url(#SVGID_61_);" points="112.2,405.6 111.6,416.2 84.2,422.7 84.8,412.1 108.4,406.5 		"/>
		
			<linearGradient id="SVGID_62_" gradientUnits="userSpaceOnUse" x1="71.0493" y1="344.8763" x2="78.268" y2="344.8763" gradientTransform="matrix(0.9914 4.980000e-02 -5.980000e-02 1.0057 27.7594 62.7391)">
			<stop  offset="0" style="stop-color:#004DA9"/>
			<stop  offset="1" style="stop-color:#0029E8"/>
		</linearGradient>
		<polygon style="fill:url(#SVGID_62_);" points="84.8,412.1 84.2,422.7 77.5,414.5 78.1,403.9 		"/>
		
			<linearGradient id="SVGID_63_" gradientUnits="userSpaceOnUse" x1="58.3037" y1="341.3898" x2="71.0499" y2="341.3898" gradientTransform="matrix(0.9914 4.980000e-02 -5.980000e-02 1.0057 27.7594 62.7391)">
			<stop  offset="0" style="stop-color:#89B9FF"/>
			<stop  offset="1" style="stop-color:#0260F3"/>
		</linearGradient>
		<path style="fill:url(#SVGID_63_);" d="M78.1,403.9l-0.6,10.6c-4.2,0.3-8.4,0.4-12.7,0.2l0.6-10.6C69.7,404.3,74,404.2,78.1,403.9
			z"/>
		
			<linearGradient id="SVGID_64_" gradientUnits="userSpaceOnUse" x1="52.4888" y1="346.1247" x2="58.3043" y2="346.1247" gradientTransform="matrix(0.9914 4.980000e-02 -5.980000e-02 1.0057 27.7594 62.7391)">
			<stop  offset="0" style="stop-color:#004DA9"/>
			<stop  offset="1" style="stop-color:#0029E8"/>
		</linearGradient>
		<polygon style="fill:url(#SVGID_64_);" points="65.4,404.1 64.8,414.7 58.5,423.1 59.2,412.5 		"/>
		
			<linearGradient id="SVGID_65_" gradientUnits="userSpaceOnUse" x1="20.6687" y1="334.459" x2="30.1022" y2="334.459" gradientTransform="matrix(0.9914 4.980000e-02 -5.980000e-02 1.0057 27.7594 62.7391)">
			<stop  offset="0" style="stop-color:#89B9FF"/>
			<stop  offset="1" style="stop-color:#0260F3"/>
		</linearGradient>
		<path style="fill:url(#SVGID_65_);" d="M37.7,398.5l-6.1,8.2c-1.3-0.7-2.5-1.4-3.6-2.1l0.6-10.6C31.3,395.6,34.3,397.1,37.7,398.5
			z"/>
		
			<linearGradient id="SVGID_66_" gradientUnits="userSpaceOnUse" x1="24.2831" y1="348.3572" x2="52.4894" y2="348.3572" gradientTransform="matrix(0.9914 4.980000e-02 -5.980000e-02 1.0057 27.7594 62.7391)">
			<stop  offset="0" style="stop-color:#89B9FF"/>
			<stop  offset="1" style="stop-color:#0260F3"/>
		</linearGradient>
		<polygon style="fill:url(#SVGID_66_);" points="59.2,412.5 58.5,423.1 30.8,417.5 31.4,406.9 32.6,407.1 33.6,407.3 		"/>
		
			<linearGradient id="SVGID_67_" gradientUnits="userSpaceOnUse" x1="5.238" y1="335.719" x2="20.6693" y2="335.719" gradientTransform="matrix(0.9914 4.980000e-02 -5.980000e-02 1.0057 27.7594 62.7391)">
			<stop  offset="0" style="stop-color:#004DA9"/>
			<stop  offset="1" style="stop-color:#0029E8"/>
		</linearGradient>
		<polygon style="fill:url(#SVGID_67_);" points="28.6,393.9 28,404.5 12.4,408.2 13.1,397.5 		"/>
		
			<linearGradient id="SVGID_68_" gradientUnits="userSpaceOnUse" x1="-7.4733" y1="331.0747" x2="5.2385" y2="331.0747" gradientTransform="matrix(0.9914 4.980000e-02 -5.980000e-02 1.0057 27.7594 62.7391)">
			<stop  offset="0" style="stop-color:#89B9FF"/>
			<stop  offset="1" style="stop-color:#0260F3"/>
		</linearGradient>
		<polygon class="st86" points="13.1,397.5 12.4,408.2 0.6,393.8 1.3,383.1 8.5,391.9 		"/>
		
			<linearGradient id="SVGID_69_" gradientUnits="userSpaceOnUse" x1="-8.6267" y1="311.2972" x2="7.8348" y2="311.2972" gradientTransform="matrix(0.9914 4.980000e-02 -5.980000e-02 1.0057 27.7594 62.7391)">
			<stop  offset="0" style="stop-color:#004DA9"/>
			<stop  offset="1" style="stop-color:#0029E8"/>
		</linearGradient>
		<path class="st87" d="M16.7,379.5l-9.2,2.2l-7.2-1.5l0.6-10.6l6.4,1.3l9.2,1.9C16,374.9,16.1,377.2,16.7,379.5z"/>
		<linearGradient id="SVGID_70_" gradientUnits="userSpaceOnUse" x1="29.8948" y1="363.8712" x2="141.1759" y2="363.8712">
			<stop  offset="0" style="stop-color:#E7F2FF"/>
			<stop  offset="1" style="stop-color:#D2E1FF"/>
		</linearGradient>
		<path class="st88" d="M141.2,380.9l-6.7,8.9c-31.1-29.4-68.4-37.5-98.9-38l-5.7-7l27.4-6.5l6.4,7.9c1.7-0.1,3.4-0.2,5-0.3
			c2.3-0.1,4.6-0.1,7,0c0.4,0,0.8,0,1.2,0l1.7-2.3l0.1-0.2l0.6-0.8l3.6-4.9l5.6,1.1l22.1,4.5l-6,8.1c1.9,0.8,3.7,1.6,5.4,2.5
			c1.4,0.7,2.8,1.5,4,2.3l15-3.6l11.8,14.4l-7.8,1.8l-7.3,1.7c0.6,2.3,0.6,4.6,0.1,6.9l8.1,1.6L141.2,380.9z"/>
	</g>
	<g>
		
			<linearGradient id="SVGID_71_" gradientUnits="userSpaceOnUse" x1="-1398.9058" y1="606.0363" x2="-1397.6833" y2="606.0363" gradientTransform="matrix(8.000000e-15 -123.6992 36.0064 2.000000e-15 -21727.4941 -172676.0469)">
			<stop  offset="0" style="stop-color:#89B9FF;stop-opacity:0"/>
			<stop  offset="1" style="stop-color:#89B9FF"/>
		</linearGradient>
		
			<path style="opacity:0.7;fill:none;stroke:url(#SVGID_71_);stroke-width:3.872;stroke-linecap:round;stroke-linejoin:round;enable-background:new    ;" d="
			M70.4,375.9v-64.8c0-12.8,10.4-23.2,23.2-23.2l0,0c12.8,0,23.2-10.4,23.2-23.2v-48.4"/>
		
			<linearGradient id="SVGID_72_" gradientUnits="userSpaceOnUse" x1="-1385.579" y1="654.2188" x2="-1386.8696" y2="655.5094" gradientTransform="matrix(0 -16 16 0 -10362.1953 -21963.6914)">
			<stop  offset="0" style="stop-color:#E4EFFF"/>
			<stop  offset="1" style="stop-color:#FFFFFF"/>
		</linearGradient>
		<circle style="fill:url(#SVGID_72_);" cx="115.6" cy="215.9" r="10.3"/>
		<circle class="st41" cx="115.6" cy="215.9" r="5.2"/>
	</g>
</g>
</svg>
