<?xml version="1.0" encoding="utf-8"?>
<!-- Generator: Adobe Illustrator 22.0.0, SVG Export Plug-In . SVG Version: 6.00 Build 0)  -->
<svg version="1.1" id="图层_1" xmlns="http://www.w3.org/2000/svg" xmlns:xlink="http://www.w3.org/1999/xlink" x="0px" y="0px"
	 viewBox="0 0 605.1 516" style="enable-background:new 0 0 605.1 516;" xml:space="preserve">
<style type="text/css">
	.st0{fill:url(#SVGID_1_);}
	.st1{fill:#C9DEFF;}
	.st2{fill:url(#SVGID_2_);}
	.st3{fill:#F1F4FF;}
	.st4{fill:url(#SVGID_3_);}
	.st5{fill:url(#SVGID_4_);}
	.st6{fill:none;stroke:#FFFFFF;stroke-width:1.9729;stroke-linecap:round;stroke-miterlimit:10;}
	.st7{fill:none;stroke:#A4F1EF;stroke-width:1.9729;stroke-linecap:round;stroke-miterlimit:10;}
	.st8{fill:url(#SVGID_5_);}
	.st9{fill:#FFFFFF;}
	.st10{fill:url(#SVGID_6_);}
	.st11{fill:none;stroke:#FFFFFF;stroke-width:2.9593;stroke-linecap:round;stroke-miterlimit:10;}
	.st12{fill:url(#SVGID_7_);}
	.st13{fill:url(#SVGID_8_);}
	.st14{fill:url(#SVGID_9_);}
	.st15{fill:url(#SVGID_10_);}
	.st16{opacity:0.2;fill:url(#SVGID_11_);}
	.st17{opacity:0.2;fill:url(#SVGID_12_);}
	.st18{opacity:0.2;fill:url(#SVGID_13_);}
	.st19{fill:#E6F1FF;}
	.st20{opacity:0.7;fill:none;stroke:url(#XMLID_2_);stroke-width:1.322;stroke-miterlimit:10;enable-background:new    ;}
	.st21{opacity:0.7;fill:none;stroke:url(#XMLID_3_);stroke-width:1.322;stroke-miterlimit:10;enable-background:new    ;}
	.st22{fill:#D0E3FF;}
	.st23{opacity:0.2;fill:url(#SVGID_14_);enable-background:new    ;}
	.st24{opacity:0.2;fill:url(#SVGID_15_);enable-background:new    ;}
	.st25{opacity:0.2;fill:url(#SVGID_16_);enable-background:new    ;}
	
		.st26{opacity:0.7;fill:none;stroke:url(#SVGID_17_);stroke-width:3.966;stroke-linecap:round;stroke-linejoin:round;stroke-dasharray:0,13.2201;enable-background:new    ;}
	.st27{fill:url(#SVGID_18_);}
	.st28{fill:#120078;}
	.st29{fill:url(#SVGID_19_);fill-opacity:0.3;}
	.st30{opacity:0.2;fill:url(#SVGID_20_);enable-background:new    ;}
	.st31{fill:url(#SVGID_21_);}
	.st32{fill:#003FA1;}
	.st33{fill:#CADFFF;}
	
		.st34{opacity:0.7;fill:none;stroke:url(#SVGID_22_);stroke-width:3.966;stroke-linecap:round;stroke-linejoin:round;stroke-dasharray:0,13.2201;enable-background:new    ;}
	.st35{fill:url(#SVGID_23_);}
	.st36{fill:url(#SVGID_24_);fill-opacity:0.3;}
	.st37{opacity:0.2;fill:url(#SVGID_25_);enable-background:new    ;}
	.st38{fill:url(#SVGID_26_);}
	
		.st39{opacity:0.7;fill:none;stroke:url(#SVGID_27_);stroke-width:3.966;stroke-linecap:round;stroke-linejoin:round;stroke-dasharray:0,13.2201;enable-background:new    ;}
	.st40{fill:url(#SVGID_28_);}
	.st41{fill:#2446C7;}
	
		.st42{opacity:0.7;fill:none;stroke:url(#SVGID_29_);stroke-width:3.966;stroke-linecap:round;stroke-linejoin:round;enable-background:new    ;}
	.st43{fill:url(#SVGID_30_);}
	
		.st44{opacity:0.7;fill:none;stroke:url(#SVGID_31_);stroke-width:3.966;stroke-linecap:round;stroke-linejoin:round;enable-background:new    ;}
	.st45{fill:url(#SVGID_32_);}
	.st46{fill:#F1FFFF;}
	.st47{fill:url(#SVGID_33_);fill-opacity:6.000000e-02;}
	.st48{fill:url(#SVGID_34_);fill-opacity:0.1;}
	.st49{fill:url(#SVGID_35_);fill-opacity:0.3;}
	.st50{fill:url(#SVGID_36_);}
	.st51{fill:url(#SVGID_37_);fill-opacity:6.000000e-02;}
	.st52{fill:url(#SVGID_38_);fill-opacity:0.1;}
	.st53{fill:url(#SVGID_39_);fill-opacity:0.3;}
	.st54{fill:url(#SVGID_40_);}
	
		.st55{opacity:0.7;fill:none;stroke:url(#SVGID_41_);stroke-width:3.4129;stroke-linecap:round;stroke-linejoin:round;enable-background:new    ;}
	.st56{fill:url(#SVGID_42_);}
	.st57{fill:#0069FF;fill-opacity:5.000000e-02;}
	.st58{fill:#0069FF;fill-opacity:0.1;}
	
		.st59{opacity:0.7;fill:none;stroke:url(#SVGID_43_);stroke-width:3.4129;stroke-linecap:round;stroke-linejoin:round;stroke-dasharray:0,11.3765;enable-background:new    ;}
	.st60{fill:url(#SVGID_44_);}
	
		.st61{opacity:0.7;fill:none;stroke:url(#SVGID_45_);stroke-width:3.4129;stroke-linecap:round;stroke-linejoin:round;enable-background:new    ;}
	.st62{fill:url(#SVGID_46_);}
	.st63{fill:url(#SVGID_47_);}
	.st64{fill:url(#SVGID_48_);}
	.st65{fill:url(#SVGID_49_);}
	.st66{fill:url(#SVGID_50_);}
	.st67{fill:url(#SVGID_51_);}
	.st68{fill:url(#SVGID_52_);}
	.st69{filter:url(#Adobe_OpacityMaskFilter);}
	.st70{filter:url(#Adobe_OpacityMaskFilter_1_);}
	.st71{mask:url(#SVGID_53_);fill:url(#SVGID_54_);}
	.st72{fill:url(#SVGID_55_);}
	.st73{fill:url(#SVGID_56_);}
	.st74{fill:url(#SVGID_57_);}
	.st75{fill:url(#SVGID_58_);}
	.st76{fill:url(#SVGID_59_);}
	.st77{fill:url(#SVGID_60_);}
	.st78{opacity:0.5;fill:url(#SVGID_61_);enable-background:new    ;}
	.st79{opacity:0.5;fill:url(#SVGID_62_);enable-background:new    ;}
	.st80{opacity:0.5;fill:url(#SVGID_63_);enable-background:new    ;}
	.st81{opacity:0.5;fill:url(#SVGID_64_);enable-background:new    ;}
	.st82{filter:url(#Adobe_OpacityMaskFilter_2_);}
	.st83{filter:url(#Adobe_OpacityMaskFilter_3_);}
	.st84{mask:url(#SVGID_65_);fill:url(#SVGID_66_);}
	.st85{opacity:0.2;fill:url(#SVGID_67_);enable-background:new    ;}
	.st86{fill:url(#SVGID_68_);}
	.st87{fill:url(#SVGID_69_);}
	.st88{fill:url(#SVGID_70_);}
	.st89{fill:url(#SVGID_71_);}
	.st90{filter:url(#Adobe_OpacityMaskFilter_4_);}
	.st91{filter:url(#Adobe_OpacityMaskFilter_5_);}
	.st92{mask:url(#SVGID_72_);fill:url(#SVGID_73_);}
	.st93{fill:url(#SVGID_74_);}
	.st94{fill:url(#SVGID_75_);}
	.st95{fill:none;stroke:#000000;stroke-width:0.7869;stroke-miterlimit:10;}
	.st96{fill:url(#SVGID_76_);}
	.st97{fill:url(#SVGID_77_);}
	.st98{fill:url(#SVGID_78_);}
	.st99{fill:url(#SVGID_79_);}
	.st100{fill:url(#SVGID_80_);}
	.st101{fill:url(#SVGID_81_);}
	.st102{fill:url(#SVGID_82_);}
	.st103{fill:url(#SVGID_83_);}
	.st104{fill:url(#SVGID_84_);}
	.st105{fill:url(#SVGID_85_);}
	.st106{fill:url(#SVGID_86_);}
	.st107{fill:url(#SVGID_87_);}
	.st108{fill:url(#SVGID_88_);}
	.st109{fill:url(#SVGID_89_);}
	.st110{fill:url(#SVGID_90_);}
	.st111{fill:url(#SVGID_91_);}
	
		.st112{opacity:0.7;fill:none;stroke:url(#SVGID_92_);stroke-width:3.872;stroke-linecap:round;stroke-linejoin:round;stroke-dasharray:0,12.9066;enable-background:new    ;}
	.st113{fill:url(#SVGID_93_);}
	.st114{fill:url(#SVGID_94_);fill-opacity:0.3;}
	.st115{opacity:0.2;fill:url(#SVGID_95_);enable-background:new    ;}
	.st116{fill:url(#SVGID_96_);}
	
		.st117{opacity:0.7;fill:none;stroke:url(#SVGID_97_);stroke-width:3.872;stroke-linecap:round;stroke-linejoin:round;stroke-dasharray:0,12.9066;enable-background:new    ;}
	
		.st118{opacity:0.7;fill:none;stroke:url(#SVGID_98_);stroke-width:3.872;stroke-linecap:round;stroke-linejoin:round;enable-background:new    ;}
	
		.st119{opacity:0.7;fill:none;stroke:url(#SVGID_99_);stroke-width:3.872;stroke-linecap:round;stroke-linejoin:round;stroke-dasharray:0,12.9066;enable-background:new    ;}
	.st120{fill:url(#SVGID_100_);}
	.st121{fill:url(#SVGID_101_);}
	.st122{fill:url(#SVGID_102_);}
	.st123{fill:url(#SVGID_103_);}
	.st124{fill:url(#SVGID_104_);}
	.st125{fill:url(#SVGID_105_);}
	.st126{fill:url(#SVGID_106_);}
	.st127{fill:url(#SVGID_107_);}
	.st128{fill:url(#SVGID_108_);}
	.st129{filter:url(#Adobe_OpacityMaskFilter_6_);}
	.st130{filter:url(#Adobe_OpacityMaskFilter_7_);}
	.st131{mask:url(#SVGID_109_);fill:url(#SVGID_110_);}
	.st132{fill:url(#SVGID_111_);}
	.st133{fill:url(#SVGID_112_);}
	.st134{fill:url(#SVGID_113_);}
	.st135{fill:url(#SVGID_114_);}
	.st136{fill:url(#SVGID_115_);}
	.st137{fill:url(#SVGID_116_);}
	.st138{fill:url(#SVGID_117_);}
	.st139{fill:url(#SVGID_118_);}
	.st140{fill:url(#SVGID_119_);}
	.st141{fill:url(#SVGID_120_);}
	.st142{fill:url(#SVGID_121_);}
	.st143{filter:url(#Adobe_OpacityMaskFilter_8_);}
	.st144{filter:url(#Adobe_OpacityMaskFilter_9_);}
	.st145{mask:url(#SVGID_122_);fill:url(#SVGID_123_);}
	.st146{fill:url(#SVGID_124_);}
	.st147{fill:url(#SVGID_125_);}
	.st148{fill:none;stroke:#000000;stroke-width:1.2907;stroke-miterlimit:10;}
	.st149{fill:url(#SVGID_126_);}
	.st150{fill:url(#SVGID_127_);}
	.st151{fill:url(#SVGID_128_);}
	.st152{fill:url(#SVGID_129_);}
	.st153{fill:url(#SVGID_130_);}
	.st154{fill:url(#SVGID_131_);}
	.st155{fill:url(#SVGID_132_);}
	.st156{fill:url(#SVGID_133_);}
	.st157{fill:url(#SVGID_134_);}
	.st158{fill:url(#SVGID_135_);}
	.st159{fill:url(#SVGID_136_);}
	.st160{fill:url(#SVGID_137_);}
	.st161{fill:url(#SVGID_138_);}
	.st162{fill:url(#SVGID_139_);}
	.st163{fill:url(#SVGID_140_);}
	.st164{fill:url(#SVGID_141_);}
	
		.st165{opacity:0.7;fill:none;stroke:url(#SVGID_142_);stroke-width:3.872;stroke-linecap:round;stroke-linejoin:round;enable-background:new    ;}
	.st166{fill:url(#SVGID_143_);}
	
		.st167{opacity:0.7;fill:none;stroke:url(#SVGID_144_);stroke-width:3.7122;stroke-linecap:round;stroke-linejoin:round;stroke-dasharray:0,12.3739;enable-background:new    ;}
	.st168{fill:url(#SVGID_145_);}
	.st169{clip-path:url(#SVGID_147_);fill:#F9FBFF;}
	.st170{clip-path:url(#SVGID_147_);fill:#F8FAFF;}
	.st171{clip-path:url(#SVGID_147_);fill:#F7F9FF;}
	.st172{clip-path:url(#SVGID_147_);fill:#F6F9FF;}
	.st173{clip-path:url(#SVGID_147_);fill:#F4F8FF;}
	.st174{clip-path:url(#SVGID_147_);fill:#F3F8FF;}
	.st175{clip-path:url(#SVGID_147_);fill:#F2F7FF;}
	.st176{clip-path:url(#SVGID_147_);fill:#F1F6FF;}
	.st177{clip-path:url(#SVGID_147_);fill:#F0F6FF;}
	.st178{clip-path:url(#SVGID_147_);fill:#EFF5FF;}
	.st179{clip-path:url(#SVGID_147_);fill:#EEF5FF;}
	.st180{clip-path:url(#SVGID_147_);fill:#EDF4FF;}
	.st181{fill:url(#SVGID_148_);}
	.st182{opacity:0.256;}
	.st183{fill:url(#SVGID_149_);}
	.st184{fill:url(#SVGID_150_);}
	.st185{fill:url(#SVGID_151_);}
	
		.st186{opacity:0.7;fill:none;stroke:url(#SVGID_152_);stroke-width:3.7122;stroke-linecap:round;stroke-linejoin:round;stroke-dasharray:0,12.3739;enable-background:new    ;}
	.st187{fill:url(#SVGID_153_);}
	
		.st188{opacity:0.7;fill:none;stroke:url(#SVGID_154_);stroke-width:3.7122;stroke-linecap:round;stroke-linejoin:round;enable-background:new    ;}
	.st189{fill:url(#SVGID_155_);}
	.st190{fill:#DAC8FF;}
	.st191{fill:url(#SVGID_156_);}
	.st192{fill:url(#SVGID_157_);}
	.st193{opacity:0.5;fill:url(#SVGID_158_);enable-background:new    ;}
	.st194{fill:url(#SVGID_159_);}
	.st195{opacity:0.5;fill:url(#SVGID_160_);enable-background:new    ;}
	.st196{fill:url(#SVGID_161_);}
	.st197{opacity:0.5;fill:url(#SVGID_162_);enable-background:new    ;}
	.st198{fill:url(#SVGID_163_);}
	.st199{opacity:0.5;fill:url(#SVGID_164_);enable-background:new    ;}
	.st200{fill:url(#SVGID_165_);}
	.st201{fill:url(#SVGID_166_);}
	.st202{fill:url(#SVGID_167_);}
	.st203{fill:url(#SVGID_168_);}
	.st204{fill:url(#SVGID_169_);}
	.st205{opacity:0.5;fill:url(#SVGID_170_);enable-background:new    ;}
	.st206{fill:url(#SVGID_171_);}
	.st207{opacity:0.5;fill:url(#SVGID_172_);enable-background:new    ;}
	.st208{fill:url(#SVGID_173_);}
	.st209{opacity:0.5;fill:url(#SVGID_174_);enable-background:new    ;}
	.st210{fill:url(#SVGID_175_);}
	.st211{opacity:0.5;fill:url(#SVGID_176_);enable-background:new    ;}
	.st212{fill:url(#SVGID_177_);}
	.st213{fill:url(#SVGID_178_);}
	.st214{fill:url(#SVGID_179_);}
	.st215{fill:url(#SVGID_180_);}
	.st216{opacity:0.5;fill:url(#SVGID_181_);enable-background:new    ;}
	.st217{opacity:0.5;fill:url(#SVGID_182_);enable-background:new    ;}
	.st218{opacity:0.5;fill:url(#SVGID_183_);enable-background:new    ;}
	.st219{opacity:0.5;fill:url(#SVGID_184_);enable-background:new    ;}
	.st220{opacity:0.5;fill:url(#SVGID_185_);enable-background:new    ;}
	.st221{opacity:0.5;fill:url(#SVGID_186_);enable-background:new    ;}
	.st222{opacity:0.5;fill:url(#SVGID_187_);enable-background:new    ;}
	.st223{opacity:0.5;fill:url(#SVGID_188_);enable-background:new    ;}
	.st224{opacity:0.2;fill:url(#SVGID_189_);}
	.st225{opacity:0.2;fill:url(#SVGID_190_);}
	.st226{opacity:0.5;fill:url(#SVGID_191_);enable-background:new    ;}
	.st227{opacity:0.5;fill:url(#SVGID_192_);enable-background:new    ;}
	.st228{opacity:0.2;fill:url(#SVGID_193_);}
	.st229{opacity:0.2;fill:url(#SVGID_194_);}
	.st230{opacity:0.2;fill:url(#SVGID_195_);enable-background:new    ;}
	.st231{opacity:0.5;fill:url(#SVGID_196_);enable-background:new    ;}
	.st232{fill:url(#SVGID_197_);}
</style>
<g>
	
		<linearGradient id="SVGID_1_" gradientUnits="userSpaceOnUse" x1="-179.2919" y1="284.5989" x2="-412.5847" y2="442.4146" gradientTransform="matrix(1 0 0 1 606.4797 0)">
		<stop  offset="5.376340e-03" style="stop-color:#00C4F9"/>
		<stop  offset="1" style="stop-color:#005BE8"/>
	</linearGradient>
	<path class="st0" d="M472.9,352.5c-0.4-1.3-57.3-61.4-57.3-61.4l-53.6-0.2c-27.3-6.7-57.7-10.5-89.7-10.5
		c-30.7,0-59.9,3.5-86.4,9.7l-56.4-0.3c0,0-61.4,67.1-61.6,68c-8.3,12.4-12.9,25.8-12.9,39.8c0,64.7,97.3,117.2,217.3,117.2
		c120,0,217.3-52.5,217.3-117.2C489.6,381.6,483.6,366.4,472.9,352.5z"/>
	<path class="st1" d="M472.9,352.5c-0.4-1.3-57.3-61.4-57.3-61.4l-53.6-0.2c-27.3-6.7-57.7-10.5-89.7-10.5
		c-30.7,0-59.9,3.5-86.4,9.7l-56.4-0.3c0,0-61.4,67.1-61.6,68c-8.3,12.4-12.9,25.8-12.9,39.8c0,64.7,97.3,117.2,217.3,117.2
		c120,0,217.3-52.5,217.3-117.2C489.6,381.6,483.6,366.4,472.9,352.5z"/>
	
		<linearGradient id="SVGID_2_" gradientUnits="userSpaceOnUse" x1="-496.7766" y1="332.799" x2="-172.433" y2="332.799" gradientTransform="matrix(1 0 0 1 606.4797 0)">
		<stop  offset="0" style="stop-color:#89B9FF"/>
		<stop  offset="1" style="stop-color:#0260F3"/>
	</linearGradient>
	<ellipse class="st2" cx="271.9" cy="332.8" rx="162.2" ry="89.9"/>
	<ellipse class="st3" cx="271.5" cy="329.9" rx="144.5" ry="75"/>
	<path class="st1" d="M271.5,261.9c77.6,0,140.8,31.7,144.4,71.5c0.1-1.2,0.2-2.3,0.2-3.5c0-41.4-64.7-75-144.5-75
		s-144.5,33.6-144.5,75c0,1.2,0.1,2.3,0.2,3.5C130.6,293.6,193.9,261.9,271.5,261.9z"/>
	
		<linearGradient id="SVGID_3_" gradientUnits="userSpaceOnUse" x1="-359.3314" y1="539.9745" x2="-326.0681" y2="441.6309" gradientTransform="matrix(1 0 0 1 606.4797 0)">
		<stop  offset="5.376340e-03" style="stop-color:#00C4F9"/>
		<stop  offset="1" style="stop-color:#005BE8"/>
	</linearGradient>
	<path class="st4" d="M274,439c-23.1,0-45.2-2.4-65.5-6.8l-32.7,35.4c28.9,8.5,62.5,13.3,98.3,13.3c33.6,0,65.3-4.3,93-11.9
		l-31.7-36C316.2,436.9,295.5,439,274,439z"/>
	
		<linearGradient id="SVGID_4_" gradientUnits="userSpaceOnUse" x1="-175.8797" y1="445.4051" x2="-262.5656" y2="431.1867" gradientTransform="matrix(1 0 0 1 606.4797 0)">
		<stop  offset="0" style="stop-color:#89B9FF"/>
		<stop  offset="1" style="stop-color:#0260F3"/>
	</linearGradient>
	<path class="st5" d="M346.7,430.6l33.2,34.6h0c21.1-6.9,39.4-15.7,54-26l-36.2-27.4C382.9,419.6,365.7,426,346.7,430.6z"/>
	<line class="st6" x1="368.3" y1="442.7" x2="377.7" y2="453.1"/>
	<line class="st7" x1="368.3" y1="431.3" x2="381.3" y2="444.5"/>
	<line class="st6" x1="381.1" y1="433.9" x2="390.6" y2="444.5"/>
	<line class="st7" x1="392.5" y1="436.1" x2="401.3" y2="446"/>
	<line class="st6" x1="393.5" y1="425.7" x2="408.1" y2="440.6"/>
	<line class="st7" x1="397.5" y1="418.9" x2="413.8" y2="433.1"/>
	
		<linearGradient id="SVGID_5_" gradientUnits="userSpaceOnUse" x1="-445.7959" y1="465.09" x2="-459.5556" y2="388.0359" gradientTransform="matrix(1 0 0 1 606.4797 0)">
		<stop  offset="0" style="stop-color:#89B9FF"/>
		<stop  offset="1" style="stop-color:#0260F3"/>
	</linearGradient>
	<path class="st8" d="M147.7,410l-35.8,27.1c14.2,10.5,32.3,19.5,53.1,26.6l33-34.4C179.3,424.4,162.3,417.9,147.7,410z"/>
	<path class="st9" d="M140,443.6c-6.6-1.6-9.8-7.5-7.1-13.3c2.7-5.8,10.3-9.2,16.9-7.7c0.9,0.2,1.4,1.1,1,1.9
		c-0.4,0.8-1.5,1.3-2.4,1.1c-4.7-1.1-10.1,1.3-12.1,5.5c-1.9,4.1,0.3,8.4,5.1,9.5c1.2,0.3,2.4,0.3,3.7,0.2c1-0.1,1.9,0.5,1.9,1.3
		c0,0.8-0.8,1.6-1.8,1.8C143.4,444.1,141.6,444,140,443.6z"/>
	
		<linearGradient id="SVGID_6_" gradientUnits="userSpaceOnUse" x1="-466.6137" y1="420.4322" x2="-449.7654" y2="437.8153" gradientTransform="matrix(1 0 0 1 606.4797 0)">
		<stop  offset="0" style="stop-color:#4C81FF"/>
		<stop  offset="1" style="stop-color:#2AF8DD"/>
	</linearGradient>
	<path class="st10" d="M150.4,441.6c-0.3-0.1-0.6-0.2-0.8-0.5c-0.6-0.6-0.3-1.6,0.5-2.2c1.5-1,2.7-2.3,3.4-3.8
		c1.1-2.4,0.8-5-0.7-6.9c-0.5-0.7-0.3-1.6,0.6-2.2c0.9-0.5,2-0.4,2.6,0.2c2.2,2.7,2.6,6.3,1,9.7c-1,2.1-2.6,4-4.8,5.4
		C151.6,441.6,150.9,441.7,150.4,441.6z"/>
	<line class="st11" x1="168" y1="430.2" x2="180" y2="434.5"/>
	<line class="st11" x1="162" y1="438.3" x2="174" y2="442.6"/>
	<line class="st11" x1="154.3" y1="447.2" x2="166.3" y2="451.5"/>
	
		<linearGradient id="SVGID_7_" gradientUnits="userSpaceOnUse" x1="-406.5617" y1="455.2401" x2="-65.7123" y2="477.0494" gradientTransform="matrix(1 0 0 1 606.4797 0)">
		<stop  offset="0" style="stop-color:#89B9FF"/>
		<stop  offset="1" style="stop-color:#0260F3"/>
	</linearGradient>
	<path class="st12" d="M175.8,467.6l49.9-26.6c0,0,48.4,8.6,96.7,0.5l44.6,27.6c0,0-39.7,12.2-93,11.9S175.8,467.6,175.8,467.6z"/>
	
		<linearGradient id="SVGID_8_" gradientUnits="userSpaceOnUse" x1="-445.6669" y1="440.7584" x2="-208.5421" y2="439.8411" gradientTransform="matrix(1 0 0 1 606.4797 0)">
		<stop  offset="0" style="stop-color:#89B9FF"/>
		<stop  offset="1" style="stop-color:#0260F3"/>
	</linearGradient>
	<path class="st13" d="M225.7,441v-5.6c0,0,45.3,8.8,96.6,0l0,6.1C322.3,441.5,269.7,450.7,225.7,441z"/>
	
		<linearGradient id="SVGID_9_" gradientUnits="userSpaceOnUse" x1="-523.8908" y1="379.1537" x2="-474.7962" y2="379.1537" gradientTransform="matrix(1 0 0 1 606.4797 0)">
		<stop  offset="0" style="stop-color:#6AACFF"/>
		<stop  offset="1" style="stop-color:#005EFF"/>
	</linearGradient>
	<path class="st14" d="M131.7,422.7c0,0-56.4-33.6-37.9-93.8l-8.7,9.6c0,0-16.8,51.7,37.8,90.9L131.7,422.7z"/>
	
		<linearGradient id="SVGID_10_" gradientUnits="userSpaceOnUse" x1="-197.8821" y1="376.1743" x2="-147.7717" y2="376.1743" gradientTransform="matrix(1 0 0 1 606.4797 0)">
		<stop  offset="0" style="stop-color:#6AACFF"/>
		<stop  offset="1" style="stop-color:#005EFF"/>
	</linearGradient>
	<path class="st15" d="M408.6,420.1c0,0,57.8-34.4,39.3-94.7l8.7,9.6c0,0,15.5,52.7-39,91.9L408.6,420.1z"/>
	
		<linearGradient id="SVGID_11_" gradientUnits="userSpaceOnUse" x1="-246.2236" y1="404.4363" x2="-159.3022" y2="465.7529" gradientTransform="matrix(1 0 0 1 606.4797 0)">
		<stop  offset="0" style="stop-color:#FFFFFF"/>
		<stop  offset="1" style="stop-color:#FFFFFF;stop-opacity:0"/>
	</linearGradient>
	<path class="st16" d="M367,405.6l44.8,81.9c0,0,37.4-15.8,58-41l-68.4-59.6C401.5,386.8,388.7,397.1,367,405.6z"/>
	
		<linearGradient id="SVGID_12_" gradientUnits="userSpaceOnUse" x1="-202.2926" y1="399.0399" x2="-112.5831" y2="423.5745" gradientTransform="matrix(1 0 0 1 606.4797 0)">
		<stop  offset="0" style="stop-color:#FFFFFF"/>
		<stop  offset="1" style="stop-color:#FFFFFF;stop-opacity:0"/>
	</linearGradient>
	<path class="st17" d="M404.3,384.7l69.9,56.3c0,0,6.6-10.3,11.1-20.2l-73.5-42.5C411.8,378.3,407.7,382.1,404.3,384.7z"/>
	
		<linearGradient id="SVGID_13_" gradientUnits="userSpaceOnUse" x1="-416.6322" y1="402.9746" x2="-509.1447" y2="478.141" gradientTransform="matrix(1 0 0 1 606.4797 0)">
		<stop  offset="0" style="stop-color:#FFFFFF"/>
		<stop  offset="1" style="stop-color:#FFFFFF;stop-opacity:0"/>
	</linearGradient>
	<path class="st18" d="M182.9,408L117,479.6c0,0-17.7-10.5-23.8-15.6l79.1-60.2C172.3,403.9,178.6,406.4,182.9,408z"/>
	<polygon class="st3" points="280.1,185.7 251.6,169.3 280,152.9 308.5,169.4 	"/>
	<polygon class="st1" points="280.1,298.1 251.6,281.7 251.6,169.3 280.1,185.7 	"/>
	<polygon class="st19" points="280.1,298.1 308.5,281.7 308.5,169.3 280.1,185.7 	"/>
	<polygon class="st3" points="185.9,258.3 157.4,241.8 185.7,225.5 214.2,241.9 	"/>
	<polygon class="st1" points="185.9,350.6 157.4,334.2 157.4,241.8 185.9,258.3 	"/>
	<polygon class="st19" points="185.8,350.6 214.3,334.2 214.3,241.8 185.8,258.3 	"/>
	<polygon class="st3" points="259.9,243.5 231.4,227 259.7,210.7 288.2,227.1 	"/>
	<polygon class="st1" points="259.8,398.9 231.3,382.5 231.4,227 259.8,243.5 	"/>
	<polygon class="st19" points="259.8,398.9 288.3,382.5 288.2,227 259.8,243.5 	"/>
	<polygon class="st3" points="357.6,265 329.1,248.6 357.4,232.2 385.9,248.7 	"/>
	<polygon class="st1" points="357.5,377.3 329,360.9 329.1,248.6 357.5,265 	"/>
	<polygon class="st19" points="357.5,377.3 386,360.9 385.9,248.6 357.5,265 	"/>
	
		<linearGradient id="XMLID_2_" gradientUnits="userSpaceOnUse" x1="-485.4061" y1="305.7748" x2="-178.9946" y2="305.7748" gradientTransform="matrix(1 0 0 1 606.4797 0)">
		<stop  offset="0" style="stop-color:#89B9FF;stop-opacity:0"/>
		<stop  offset="1" style="stop-color:#89B9FF"/>
	</linearGradient>
	<ellipse id="XMLID_126_" class="st20" cx="274.3" cy="305.8" rx="152.5" ry="80.1"/>
	
		<linearGradient id="XMLID_3_" gradientUnits="userSpaceOnUse" x1="-331.8418" y1="193.1164" x2="-331.8418" y2="354.6541" gradientTransform="matrix(1 0 0 1 606.4797 0)">
		<stop  offset="0" style="stop-color:#89B9FF;stop-opacity:0"/>
		<stop  offset="1" style="stop-color:#89B9FF"/>
	</linearGradient>
	<ellipse id="XMLID_125_" class="st21" cx="274.6" cy="273.9" rx="152.5" ry="80.1"/>
	<path id="XMLID_124_" class="st22" d="M342.8,185.8c0,2.2-1.8,3.9-3.9,3.9c-2.2,0-3.9-1.8-3.9-3.9c0-2.2,1.7-3.9,3.9-3.9
		C341,181.9,342.8,183.6,342.8,185.8z"/>
	<path id="XMLID_123_" class="st22" d="M239.7,77c0,1.2-0.9,2.1-2.1,2.1c-1.1,0-2.1-0.9-2.1-2.1c0-1.2,0.9-2.1,2.1-2.1
		C238.8,74.9,239.7,75.8,239.7,77z"/>
	<path id="XMLID_122_" class="st22" d="M200.9,74.9c0,2-1.6,3.6-3.6,3.6c-2,0-3.6-1.6-3.6-3.6s1.6-3.6,3.6-3.6
		C199.3,71.3,200.9,72.9,200.9,74.9z"/>
	<path id="XMLID_121_" class="st22" d="M147.2,69.2c0,1.6-1.3,2.9-2.9,2.9c-1.6,0-2.9-1.3-2.9-2.9c0-1.6,1.3-2.9,2.9-2.9
		C145.9,66.3,147.2,67.6,147.2,69.2z"/>
	<g>
		
			<linearGradient id="SVGID_14_" gradientUnits="userSpaceOnUse" x1="-424.8684" y1="259.988" x2="-276.3011" y2="259.988" gradientTransform="matrix(1 0 0 1 606.4797 0)">
			<stop  offset="0" style="stop-color:#89B9FF"/>
			<stop  offset="1" style="stop-color:#0260F3"/>
		</linearGradient>
		<path class="st23" d="M181.6,290c0,5,3.4,9.5,8.2,10.8c12.1,3.3,36.7,8.8,66.1,8.8c30.4,0,54.2-5.4,66.1-8.7
			c4.9-1.4,8.2-5.8,8.2-10.8v-75c0-3.1-3-5.3-5.9-4.3c-11.4,3.7-38.1,11.1-68.4,10.8c-30.3-0.3-57-7.4-68.4-10.9
			c-2.9-0.9-5.9,1.3-5.9,4.3V290z"/>
		
			<linearGradient id="SVGID_15_" gradientUnits="userSpaceOnUse" x1="-240.4525" y1="347.6637" x2="-239.5747" y2="-41.2061" gradientTransform="matrix(1 0 0 1 606.4797 0)">
			<stop  offset="0" style="stop-color:#89B9FF"/>
			<stop  offset="1" style="stop-color:#0260F3"/>
		</linearGradient>
		<path class="st24" d="M394.4,162.4c0,0,3-37.4-50.4-57.2c-2.7-1-5.5,1-5.5,3.9v78.8c0,1.7,1.1,3.3,2.7,3.9
			c9.4,3.3,40.5,16.4,53.3,47.7L394.4,162.4z"/>
		
			<linearGradient id="SVGID_16_" gradientUnits="userSpaceOnUse" x1="-268.0473" y1="228.608" x2="-211.6977" y2="228.608" gradientTransform="matrix(1 0 0 1 606.4797 0)">
			<stop  offset="0" style="stop-color:#89B9FF"/>
			<stop  offset="1" style="stop-color:#0260F3"/>
		</linearGradient>
		<path class="st25" d="M338.4,215.9v74.2c0,3.4,3.5,5.7,6.6,4.3c14.6-6.5,48.6-23.8,49.3-45.4c0.9-27.5,0-86.7,0-86.7
			s-11.3,34.7-48.3,43.9C341.6,207.4,338.4,211.3,338.4,215.9z"/>
	</g>
	<g>
		
			<linearGradient id="SVGID_17_" gradientUnits="userSpaceOnUse" x1="-1267.6459" y1="499.7148" x2="-1267.6459" y2="498.6219" gradientTransform="matrix(0.5 0 0 50.5 706.1667 -25013.1367)">
			<stop  offset="0" style="stop-color:#89B9FF;stop-opacity:0"/>
			<stop  offset="1" style="stop-color:#89B9FF"/>
		</linearGradient>
		<path class="st26" d="M72.7,167.3L72,234"/>
		
			<linearGradient id="SVGID_18_" gradientUnits="userSpaceOnUse" x1="17.0152" y1="453.7112" x2="15.6932" y2="455.0332" gradientTransform="matrix(9 0 0 9 -74.5134 -3937.9468)">
			<stop  offset="0" style="stop-color:#E4EFFF"/>
			<stop  offset="1" style="stop-color:#FFFFFF"/>
		</linearGradient>
		<circle class="st27" cx="72.7" cy="151.4" r="5.9"/>
		<circle class="st28" cx="72.5" cy="151.2" r="3.1"/>
		
			<linearGradient id="SVGID_19_" gradientUnits="userSpaceOnUse" x1="79.9081" y1="514.5861" x2="81.1283" y2="514.2253" gradientTransform="matrix(60 0 0 -89 -4773.5942 45865.9375)">
			<stop  offset="0" style="stop-color:#89B9FF"/>
			<stop  offset="1" style="stop-color:#0260F3"/>
		</linearGradient>
		<path class="st29" d="M91,24.2c1.9-1.1,3.5,0.1,3.5,2.7v65.5c0,2.6-1.6,5.6-3.5,6.7l-72.3,42c-1.9,1.1-3.5-0.1-3.5-2.7V73
			c0-2.6,1.6-5.6,3.5-6.7L91,24.2z"/>
		
			<linearGradient id="SVGID_20_" gradientUnits="userSpaceOnUse" x1="79.6878" y1="514.6755" x2="80.908" y2="514.3147" gradientTransform="matrix(60 0 0 -89 -4773.5942 45865.9375)">
			<stop  offset="0" style="stop-color:#89B9FF"/>
			<stop  offset="1" style="stop-color:#0260F3"/>
		</linearGradient>
		<path class="st30" d="M77.8,16.3c1.9-1.1,3.5,0.1,3.5,2.7v65.5c0,2.6-1.6,5.6-3.5,6.7l-72.3,42c-1.9,1.1-3.5-0.1-3.5-2.7V65
			c0-2.6,1.6-5.6,3.5-6.7L77.8,16.3z"/>
		
			<linearGradient id="SVGID_21_" gradientUnits="userSpaceOnUse" x1="79.8465" y1="514.607" x2="81.1685" y2="514.2034" gradientTransform="matrix(60 0 0 -89 -4764.5942 45870.9375)">
			<stop  offset="0" style="stop-color:#89B9FF"/>
			<stop  offset="1" style="stop-color:#0260F3"/>
		</linearGradient>
		<path class="st31" d="M102.9,30.9c1.9-1.1,3.5,0.1,3.5,2.7V99c0,2.6-1.6,5.6-3.5,6.7l-72.3,42c-1.9,1.1-3.5-0.1-3.5-2.7V79.6
			c0-2.6,1.6-5.6,3.5-6.7L102.9,30.9z"/>
		<path class="st32" d="M38.6,79.1l34.8-20.4c0.5-0.3,1,0,1,0.8v2.7c0,0.7-0.4,1.6-1,1.9L38.6,84.5c-0.5,0.3-1,0-1-0.8V81
			C37.6,80.3,38.1,79.4,38.6,79.1z"/>
		<path class="st9" d="M48.1,86.7l34.2-20.4c0.5-0.3,1,0,1,0.8v2.7c0,0.7-0.4,1.6-1,1.9L48.1,92c-0.5,0.3-1,0-1-0.8v-2.7
			C47.1,87.8,47.6,87,48.1,86.7z"/>
		<path class="st33" d="M38.6,105.3l23.1-13.5c0.6-0.3,1,0,1,0.8v2.7c0,0.7-0.4,1.6-1,1.9l-23.1,13.5c-0.6,0.3-1,0-1-0.8v-2.7
			C37.6,106.5,38.1,105.6,38.6,105.3z"/>
		<path class="st9" d="M42.6,115.9l23.1-13.5c0.6-0.3,1,0,1,0.8v2.7c0,0.7-0.4,1.6-1,1.9l-23.1,13.5c-0.6,0.3-1,0-1-0.8v-2.7
			C41.6,117.1,42.1,116.2,42.6,115.9z"/>
		<path class="st28" d="M70.4,100l23.1-13.5c0.6-0.3,1,0,1,0.8V90c0,0.7-0.4,1.6-1,1.9l-23.1,13.5c-0.6,0.3-1,0-1-0.8V102
			C69.4,101.2,69.8,100.3,70.4,100z"/>
		<path class="st9" d="M88.1,64.3l5-2.9c0.6-0.3,1,0,1,0.8v2.7c0,0.7-0.4,1.6-1,1.9l-5,2.9c-0.6,0.3-1,0-1-0.8v-2.7
			C87.1,65.5,87.6,64.6,88.1,64.3z"/>
	</g>
	<g>
		
			<linearGradient id="SVGID_22_" gradientUnits="userSpaceOnUse" x1="1001.2044" y1="502.9623" x2="1001.2044" y2="501.8694" gradientTransform="matrix(-0.5 0 0 50.5 1033.6208 -25013.1367)">
			<stop  offset="0" style="stop-color:#89B9FF;stop-opacity:0"/>
			<stop  offset="1" style="stop-color:#89B9FF"/>
		</linearGradient>
		<path class="st34" d="M532.7,331.3l0.7,66.8"/>
		
			<linearGradient id="SVGID_23_" gradientUnits="userSpaceOnUse" x1="143.0624" y1="471.9333" x2="141.7404" y2="473.2553" gradientTransform="matrix(-9 0 0 9 1814.301 -3937.9468)">
			<stop  offset="0" style="stop-color:#E4EFFF"/>
			<stop  offset="1" style="stop-color:#FFFFFF"/>
		</linearGradient>
		<circle class="st35" cx="532.7" cy="315.4" r="5.9"/>
		<circle class="st28" cx="532.8" cy="315.2" r="3.1"/>
		
			<linearGradient id="SVGID_24_" gradientUnits="userSpaceOnUse" x1="98.8152" y1="512.7434" x2="100.0354" y2="512.3826" gradientTransform="matrix(-60 0 0 -89 6513.3818 45865.9375)">
			<stop  offset="0" style="stop-color:#89B9FF"/>
			<stop  offset="1" style="stop-color:#0260F3"/>
		</linearGradient>
		<path class="st36" d="M514.4,188.2c-1.9-1.1-3.5,0.1-3.5,2.7v65.5c0,2.6,1.6,5.6,3.5,6.7l72.3,42c1.9,1.1,3.5-0.1,3.5-2.7V237
			c0-2.6-1.6-5.6-3.5-6.7L514.4,188.2z"/>
		
			<linearGradient id="SVGID_25_" gradientUnits="userSpaceOnUse" x1="98.5948" y1="512.8328" x2="99.8151" y2="512.472" gradientTransform="matrix(-60 0 0 -89 6513.3818 45865.9375)">
			<stop  offset="0" style="stop-color:#89B9FF"/>
			<stop  offset="1" style="stop-color:#0260F3"/>
		</linearGradient>
		<path class="st37" d="M527.6,180.3c-1.9-1.1-3.5,0.1-3.5,2.7v65.5c0,2.6,1.6,5.6,3.5,6.7l72.3,42c1.9,1.1,3.5-0.1,3.5-2.7V229
			c0-2.6-1.6-5.6-3.5-6.7L527.6,180.3z"/>
		
			<linearGradient id="SVGID_26_" gradientUnits="userSpaceOnUse" x1="98.7536" y1="512.7643" x2="100.0756" y2="512.3607" gradientTransform="matrix(-60 0 0 -89 6504.3818 45870.9375)">
			<stop  offset="0" style="stop-color:#89B9FF"/>
			<stop  offset="1" style="stop-color:#0260F3"/>
		</linearGradient>
		<path class="st38" d="M502.5,194.9c-1.9-1.1-3.5,0.1-3.5,2.7V263c0,2.6,1.6,5.6,3.5,6.7l72.3,42c1.9,1.1,3.5-0.1,3.5-2.7v-65.5
			c0-2.6-1.6-5.6-3.5-6.7L502.5,194.9z"/>
		<path class="st32" d="M566.7,243.1l-34.8-20.4c-0.5-0.3-1,0-1,0.8v2.7c0,0.7,0.4,1.6,1,1.9l34.8,20.4c0.5,0.3,1,0,1-0.8V245
			C567.7,244.3,567.3,243.4,566.7,243.1z"/>
		<path class="st9" d="M557.3,250.7L523,230.3c-0.5-0.3-1,0-1,0.8v2.7c0,0.7,0.4,1.6,1,1.9l34.2,20.4c0.5,0.3,1,0,1-0.8v-2.7
			C558.2,251.8,557.8,251,557.3,250.7z"/>
		<path class="st33" d="M566.7,269.3l-23.1-13.5c-0.6-0.3-1,0-1,0.8v2.7c0,0.7,0.4,1.6,1,1.9l23.1,13.5c0.6,0.3,1,0,1-0.8v-2.7
			C567.7,270.5,567.3,269.6,566.7,269.3z"/>
		<path class="st9" d="M562.8,279.9l-23.1-13.5c-0.6-0.3-1,0-1,0.8v2.7c0,0.7,0.4,1.6,1,1.9l23.1,13.5c0.6,0.3,1,0,1-0.8v-2.7
			C563.8,281.1,563.3,280.2,562.8,279.9z"/>
		<path class="st28" d="M535,264l-23.1-13.5c-0.6-0.3-1,0-1,0.8v2.7c0,0.7,0.4,1.6,1,1.9l23.1,13.5c0.6,0.3,1,0,1-0.8V266
			C536,265.2,535.5,264.3,535,264z"/>
		<path class="st9" d="M517.2,228.3l-5-2.9c-0.6-0.3-1,0-1,0.8v2.7c0,0.7,0.4,1.6,1,1.9l5,2.9c0.6,0.3,1,0,1-0.8v-2.7
			C518.2,229.5,517.8,228.6,517.2,228.3z"/>
	</g>
	<g>
		
			<linearGradient id="SVGID_27_" gradientUnits="userSpaceOnUse" x1="-1424.4932" y1="503.5914" x2="-1424.4932" y2="502.312" gradientTransform="matrix(0.5 0 0 70.043 992.6667 -35151.0703)">
			<stop  offset="0" style="stop-color:#89B9FF;stop-opacity:0"/>
			<stop  offset="1" style="stop-color:#89B9FF"/>
		</linearGradient>
		<path class="st39" d="M280.8,32.4l-0.7,92.6"/>
		
			<linearGradient id="SVGID_28_" gradientUnits="userSpaceOnUse" x1="47.9314" y1="483.42" x2="46.6094" y2="484.742" gradientTransform="matrix(17 0 0 17 -523.5065 -8214.8145)">
			<stop  offset="0" style="stop-color:#E4EFFF"/>
			<stop  offset="1" style="stop-color:#FFFFFF"/>
		</linearGradient>
		<circle class="st40" cx="280.1" cy="14.6" r="11.2"/>
		<circle class="st41" cx="280.1" cy="14.6" r="5.9"/>
	</g>
	
		<linearGradient id="SVGID_29_" gradientUnits="userSpaceOnUse" x1="-2102.739" y1="503.3173" x2="-2102.739" y2="501.9952" gradientTransform="matrix(0.25 0 0 50.5 943.5103 -25232.1367)">
		<stop  offset="0" style="stop-color:#89B9FF;stop-opacity:0"/>
		<stop  offset="1" style="stop-color:#89B9FF"/>
	</linearGradient>
	<path class="st42" d="M417.7,118.6l0.3,66.8"/>
	
		<linearGradient id="SVGID_30_" gradientUnits="userSpaceOnUse" x1="31.5692" y1="472.6754" x2="30.2472" y2="473.9974" gradientTransform="matrix(9 0 0 9 139.4866 -4155.9468)">
		<stop  offset="0" style="stop-color:#E4EFFF"/>
		<stop  offset="1" style="stop-color:#FFFFFF"/>
	</linearGradient>
	<circle class="st43" cx="417.7" cy="104.1" r="5.9"/>
	<circle class="st41" cx="417.7" cy="104.1" r="3.1"/>
	
		<linearGradient id="SVGID_31_" gradientUnits="userSpaceOnUse" x1="-3622.8159" y1="506.3764" x2="-3622.8159" y2="505.0544" gradientTransform="matrix(0.25 0 0 50.5 943.5103 -25232.1367)">
		<stop  offset="0" style="stop-color:#89B9FF;stop-opacity:0"/>
		<stop  offset="1" style="stop-color:#89B9FF"/>
	</linearGradient>
	<path class="st44" d="M37.6,273.1l0.3,66.8"/>
	
		<linearGradient id="SVGID_32_" gradientUnits="userSpaceOnUse" x1="-10.6552" y1="489.8407" x2="-11.9772" y2="491.1628" gradientTransform="matrix(9 0 0 9 139.4866 -4155.9468)">
		<stop  offset="0" style="stop-color:#E4EFFF"/>
		<stop  offset="1" style="stop-color:#FFFFFF"/>
	</linearGradient>
	<circle class="st45" cx="37.6" cy="258.6" r="5.9"/>
	<circle class="st41" cx="37.6" cy="258.6" r="3.1"/>
	<ellipse class="st46" cx="396.4" cy="80.7" rx="3.9" ry="3.8"/>
</g>
</svg>
