<?xml version="1.0" encoding="utf-8"?>
<!-- Generator: Adobe Illustrator 22.0.0, SVG Export Plug-In . SVG Version: 6.00 Build 0)  -->
<svg version="1.1" id="图层_1" xmlns="http://www.w3.org/2000/svg" xmlns:xlink="http://www.w3.org/1999/xlink" x="0px" y="0px"
	 viewBox="0 0 920 297.7" style="enable-background:new 0 0 920 297.7;" xml:space="preserve">
<style type="text/css">
	.st0{fill:#2446C7;}
</style>
<g>
	<g>
		<path class="st0" d="M310.6,267.1l12.8-1.3c0.9,3.6,3.7,5.5,8.6,5.5c4.7,0,7-1.5,7-4.4c0.3-1.9-2.4-3.4-8.3-4.4
			c-0.9-0.3-2.3-0.8-4.4-1.3c-2.1-0.5-3.6-0.9-4.7-1c-6.3-1.9-9.5-5.5-9.6-10.7c0.2-8.3,6.2-12.6,18-12.8
			c11.1-0.3,17.9,3.4,20.3,11.2l-13,1.3c-0.5-2.8-2.7-4.2-6.5-4.2c-3.5,0.2-5.3,1.5-5.5,3.9c-0.2,1.9,1.6,3.2,5.5,3.9
			c1,0.2,2.8,0.6,5.2,1.3c1.7,0.5,3.1,0.9,4.2,1c8.2,1.7,12,5.8,11.5,12.2c0,8.2-6.2,12.2-18.5,12.2
			C319.5,280.3,312,276.1,310.6,267.1z"/>
		<path class="st0" d="M375,266.8V247h-6.5v-9.4h6.5v-14.1l12.5-2.3v16.4h9.9v9.4h-9.9v16.9c0,4.3,1.6,6.4,4.9,6.3
			c1.2,0,2.4-0.3,3.6-1l2.6,8.1c-2.4,1.6-5.9,2.3-10.4,2.3C379.3,279.7,374.8,275.5,375,266.8z"/>
		<path class="st0" d="M460,259v3.1h-32c0.5,5.6,4,8.6,10.4,9.1c4.7-0.2,7.6-1.9,8.9-5.2l13.5,1.6c-3.3,8-10.7,12-22.1,12
			c-14.9-0.5-22.8-7.3-23.4-20.3c0.5-14.4,7.8-21.9,21.9-22.4C452.2,236.8,459.8,244.2,460,259z M427.7,254h20.1
			c-0.5-5.4-3.8-8.3-9.9-8.9C431.6,245.5,428.2,248.5,427.7,254z"/>
		<path class="st0" d="M493.1,273.8v20.6h-12.5v-56.8h12.5v6.3c3-4.5,7.6-6.9,14.1-7c10.2,0.5,15.6,7.3,16.2,20.3
			c0,14.9-6,22.4-18,22.4C500,279.4,495.9,277.5,493.1,273.8z M493.1,257.4v2.9c0.2,6.4,3,9.7,8.3,9.9c5.9,0,8.9-4.3,8.9-12.8
			c-0.2-7.1-3-10.8-8.3-10.9C496.1,246.5,493.1,250.1,493.1,257.4z"/>
		<path class="st0" d="M556.2,231.9h-13v-10.4h13V231.9z M556.2,278.8h-13v-40.9h13V278.8z"/>
		<path class="st0" d="M620.6,258.5c-0.5,13.5-8,20.6-22.4,21.1c-14.2-0.9-21.7-7.9-22.4-21.1c0.7-13.9,8.2-21.1,22.7-21.6
			C612.7,237.4,620.1,244.6,620.6,258.5z M607.6,258.5c-0.2-7.8-3.4-11.8-9.6-12c-6.1,0-9.1,4-9.1,12c0.2,7.6,3.2,11.6,9.1,11.7
			C604.4,270.2,607.6,266.3,607.6,258.5z"/>
		<path class="st0" d="M643.9,266.8V247h-6.5v-9.4h6.5v-14.1l12.5-2.3v16.4h9.9v9.4h-9.9v16.9c0,4.3,1.6,6.4,4.9,6.3
			c1.2,0,2.4-0.3,3.6-1l2.6,8.1c-2.4,1.6-5.9,2.3-10.4,2.3C648.1,279.7,643.7,275.5,643.9,266.8z"/>
		<path class="st0" d="M697.6,278.8H684v-13h13.5V278.8z"/>
		<path class="st0" d="M760.4,250.7l-12.8,1.8c-1.7-3.6-4.5-5.6-8.3-6c-6.6,0.3-10.1,4.4-10.4,12.2c0,7.6,3.5,11.5,10.4,11.5
			c4.9-0.3,7.6-2.8,8.3-7.3l13.5,1.6c-3.1,10.4-10.6,15.5-22.4,15.1c-14.9-0.2-22.6-7.3-22.9-21.4c0.5-13.9,8.2-21,23.2-21.4
			C749.7,237.2,756.8,241.8,760.4,250.7z"/>
		<path class="st0" d="M823.8,258.5c-0.5,13.5-8,20.6-22.4,21.1c-14.2-0.9-21.7-7.9-22.4-21.1c0.7-13.9,8.2-21.1,22.7-21.6
			C815.9,237.4,823.3,244.6,823.8,258.5z M810.8,258.5c-0.2-7.8-3.4-11.8-9.6-12c-6.1,0-9.1,4-9.1,12c0.2,7.6,3.2,11.6,9.1,11.7
			C807.5,270.2,810.8,266.3,810.8,258.5z"/>
		<path class="st0" d="M909.3,278.5h-12.8v-22.9c0.2-6.3-2.1-9.3-6.8-9.1c-4.9,0-7.3,3.1-7.3,9.4v22.7h-12.8v-23.4
			c0.2-5.9-2.1-8.8-6.8-8.6c-4.7,0.2-7.1,3.4-7.3,9.6v22.4h-12.5v-40.6h12.5v6.3c3-5,7.6-7.6,13.8-7.6c5.9,0,9.9,2.6,12,7.8
			c3.3-5.2,8.1-7.8,14.3-7.8c9,0,13.5,5.6,13.5,16.7V278.5z"/>
	</g>
	<g>
		<path class="st0" d="M308.9,196.8c-1.2-1.7-2.8-3.7-4.6-6.1c-1.8-2.4-5.6-6.2-11.2-11.3c5.6-2.6,11.8-7.5,18.6-14.9
			c6.8-7.3,11.8-15.6,15-24.7c3.1-9.1,5.3-16.6,6.5-22.3c1.2-5.7,2.1-10.3,2.5-13.8s0.8-7,1.1-10.6c0.3-3.6,0.4-6,0.5-7l0.2-12.1
			c5.9,0.9,12.7,1.4,20.3,1.6c-0.4,3.4-0.7,6.7-1,10c-0.3,3.3-0.6,6.5-0.9,9.6c-0.3,3.1-0.8,7.4-1.6,12.9
			c-0.8,5.5-2.6,14.1-5.4,25.9c-2.9,11.8-7.4,22.2-13.6,31.2c-6.2,9-10.6,15-13.1,17.9C319.8,185.9,315.3,190.5,308.9,196.8z
			 M438.8,184.9c-1.4,1.8-4.4,6.4-9,13.8c-7.1-4.5-13-8.9-17.6-13.2c-4.6-4.3-9.8-10.5-15.6-18.5c-5.8-8-10-16.6-12.5-25.5
			c-2.5-9-4.3-16.3-5.3-21.9c-1-5.6-1.9-10.7-2.5-15.3c-0.6-4.5-1.3-10.2-1.9-17l-1.3-13.4l-1.1-11c6.7,1.3,13.6,1.9,20.7,1.9
			c-0.2,3.5-0.3,6.4-0.3,8.8c0,2.4,0.1,6.5,0.5,12.2c0.4,5.7,0.9,11,1.6,16c0.7,5,1.8,10.5,3.2,16.5s3.8,13.6,7.2,23
			c3.4,9.4,8.6,17.2,15.7,23.6c7.1,6.4,12.3,10.3,15.7,11.8l6.7,3.1C441.6,181.3,440.2,183,438.8,184.9z"/>
		<path class="st0" d="M471.3,147.4v-40.9h-6.5l-9.1,0.3V89.6l9.1,0.5h6.5V71.5l-0.6-14.3h18.8l-0.6,14.3V90h3.4l8.1-0.5v17.2
			l-8.1-0.3h-3.4V143c6.1-1.8,9.2-2.7,9.3-2.8l2.8-1.2c-0.3,2.1-0.5,4.1-0.7,6c-0.2,1.9-0.2,3.9,0,6.1l0.2,5c-2,0.5-3.5,0.9-4.5,1.2
			c-1.1,0.3-2.9,0.9-5.6,1.9c-2.7,0.9-7.2,2.5-13.7,4.6c-6.4,2.1-12.1,4.2-17,6.4c-0.5-1.9-0.9-3.6-1.4-5.1
			c-0.4-1.5-2.1-6.3-4.9-14.4C459.4,150.1,465.4,148.9,471.3,147.4z M479,190.5c3.3-2.1,6.4-4.3,9.1-6.6s5.4-5.8,7.9-10.3
			s4.5-9,6-13.3c1.5-4.3,2.4-13.1,2.6-26.5c0.1-5.9,0.1-11.5-0.2-16.7l-1.2-31.9l13.9,0.7l26.4,0.1c-0.1-10.7-0.3-17.7-0.5-20.9
			l-0.7-9.5c6.3,1.1,10.7,1.6,13.3,1.3l6.3-0.4c-0.2,2.5-0.4,5.9-0.7,10c-0.3,4.1-0.3,7.7-0.2,10.8l0.2,8.7h22.2l13.6-0.5v17.4
			l-13.6-0.4l-21.3,0.1c0.1,2.1,0.2,4.4,0.3,6.9c0.2,2.5,0.8,7.4,1.8,14.9c1.1,7.5,2.4,13.7,3.9,18.6c0.9-2.4,1.6-4.6,2.2-6.4
			c0.6-1.8,1.4-5,2.4-9.4c1-4.4,1.6-7.4,1.7-9l0.8-7.1c6.6,2.7,12.9,4.8,18.8,6.2c-0.7,2.2-2,6.4-3.9,12.5
			c-1.9,6.1-3.6,11.4-5.1,15.8c-1.5,4.4-3.5,9.1-6,13.9l-3.4,6.7c0.7,2,1.3,3.4,1.8,4.2l2.7,3.9c1.1,1.8,2.6,2.9,4.3,3.4
			c1.7,0.4,3.6-3.1,5.7-10.5c1.5,1.6,3.1,3.2,4.7,4.7c1.7,1.5,4.9,3.5,9.7,5.8c-1,2.3-2.2,4.9-3.5,7.9c-1.3,3-2.3,5.3-3.1,6.9
			c-0.8,1.7-2.1,3.7-3.8,6.1c-1.8,2.4-3.9,3.9-6.4,4.4c-2.5,0.5-6.1-1.4-10.6-5.6c-4.5-4.3-7.4-7.3-8.6-9l-4.3-5.8
			c-6.3,6-11.2,10.5-15,13.4c-3.7,2.9-7.4,5.4-11,7.4c-0.7-1.3-1.6-2.9-2.6-4.5c-1-1.7-4.2-5-9.6-10c7.8-3.1,13.9-6.7,18.3-10.9
			c4.4-4.2,8.4-8.5,12.1-13c-1.2-3.9-2.4-7.9-3.5-11.8c-1.1-4-2.4-10.4-4.1-19.4c-1.6-9-2.7-16.3-3.2-21.9l-0.9-9.1l-22.4,0.1v16.4
			H537l8.7-0.4l-0.4,14.7c-0.1,8.1-0.1,14.5,0,19.2c0.1,4.7-0.1,8.5-0.4,11.4c-0.4,2.9-1.3,5.5-2.7,7.7c-1.4,2.2-3.9,4.1-7.4,5.8
			c-3.5,1.7-6.7,2.7-9.5,3.1c-0.9-4.8-1.9-8.2-2.9-10.5l-2.9-6c4.2-0.2,6.9-0.8,7.9-1.8c1.1-1,1.7-3.1,2-6.4
			c0.3-3.3,0.5-6.2,0.6-8.6v-9.2V134l-7.6,0.1c-0.3,4-0.5,7.8-0.8,11.6c-0.3,3.7-0.8,8.4-1.6,14.1c-0.8,5.7-2.4,10.9-4.7,15.9
			c-2.3,4.9-5.1,9.4-8.4,13.6c-3.3,4.2-7.7,8.6-13.1,13.4c-0.8-1.2-2-2.7-3.4-4.5C489,196.2,485.2,193.7,479,190.5z M564,65.8
			c5-3.1,8.2-5.3,9.5-6.7l2.7-2.7c6.6,6.1,12.1,11.9,16.4,17.5c-5.7,4.5-10.1,8.5-13.2,11.9c-1.8-2.8-3.6-5.6-5.5-8.4
			C572,74.4,568.7,70.6,564,65.8z"/>
		<path class="st0" d="M628,142.9c3.6-5,6.4-9.3,8.2-12.8c1.8-3.5,3.2-6.5,4-9.1l1.9-5.6h-14l-12.5,0.3V98l12.5,0.4h14V84.8v-3.6
			c-4.8,0.7-9.5,1.3-14,1.8c-4.5,0.5-7.3,0.9-8.2,1c-2-8.2-3.3-13-4-14.6l-1.5-3.5c13.5,0.3,24.8-0.6,34-2.6
			c9.2-2,17.2-4.4,24.1-7.2c2.8,5.8,6.1,11.8,10,18c-2.7,0.6-4.8,1.1-6.1,1.3l-10.9,1.9l-5.7,1.1v20.1h8l10.5-0.4v17.8l-10.5-0.3h-8
			v15.9c1.7-0.9,3-1.6,4-2.2c0.9-0.6,3.1-2.3,6.6-5.1c2.1,2.7,3.6,4.8,4.7,6.1l6.5,9.6l3.6,5c-1.3,1.1-3,2.4-4.8,4
			c-1.9,1.6-4,3.1-6.2,4.6l48.4-10V72.2l-0.6-16.3h19.1l-0.5,16.3v67.9l8.9-2l10.5-2.8v18l-8.4,1.3l-11,2.4v26l0.5,18.1h-19.1
			l0.6-18.1v-22.4l-39.4,7.7l-15.2,3.9l-2.2-18l4.1-0.7c-0.7-1.3-1.2-2.4-1.6-3.1c-0.4-0.7-1.6-2.7-3.6-5.8c-2-3.2-3.6-5.2-4.7-6.1
			v46.2l0.5,16.7h-18.8l0.5-16.7v-31.2c-2.1,2.8-4.2,5.5-6.3,8c-2.1,2.6-6.7,7.5-13.8,14.9c-4.1-9.6-6.3-14.8-6.7-15.6l-2.4-4.4
			C619.3,152.4,624.4,147.9,628,142.9z M689.6,106.4c8.6,7.6,15.8,14.4,21.7,20.2c-1.5,1.6-2.7,2.8-3.3,3.6l-6.2,7.5l-2.9,3.4
			c-6.7-8-11.7-13.5-15.2-16.5l-6.6-5.7C681.2,115.4,685.4,111.3,689.6,106.4z M679.5,80.6c4.1-2.8,8.6-7.1,13.6-12.6
			c2.5,2.5,4.4,4.4,5.7,5.6l6.4,5.9l8.9,8.4c-5,5-9.2,9.8-12.6,14.7c-3.7-4.2-6.9-7.7-9.7-10.7C689.1,88.8,684.9,85.1,679.5,80.6z"
			/>
		<path class="st0" d="M783.6,134.2c3.3-0.8,7.7-2.3,13.1-4.5v-25.9h-12.6l-11.3,0.3V86.4l11.7,0.4h12.2V70.4l-0.5-13.1h18.8
			l-0.4,13.5v16h4.7l8.8-0.4v17.8l-9.1-0.3h-4.4v19.8c4.9-1.8,9.7-3.7,14.4-6c-0.3,2.6-0.5,5.2-0.8,7.7c-0.3,2.5-0.4,4-0.3,4.4
			l0.2,5.3c-4.1,1.8-8.6,3.6-13.5,5.4v43.2c0,6.3-0.7,10.3-2.2,12.2c-1.5,1.9-3.5,3.4-6.1,4.6c-2.6,1.1-9.1,2.1-19.3,2.8
			c-1.1-6.8-2.1-11.8-3.1-15l-1.6-5.3c4.1,0.4,7.1,0.5,8.8,0.4c2.5-0.2,4-0.7,4.7-1.5c0.6-0.9,1-2.2,1-4v-29.8
			c-2.4,0.9-4.2,1.6-5.4,2l-7.1,2.9l-5.9,2.4c-0.8-2-1.3-3.6-1.6-4.7l-2.2-6.9l-2.6-7.2C776.5,135.9,780.3,135,783.6,134.2z
			 M859.5,169.2c-4.7-6.9-8.3-13-11.1-18.2c-2.7-5.2-5.3-10.9-7.8-17.2c3.2-0.8,6.6-2,10.3-3.6h-8.5l-9.8,0.5l0.1-17.5l10.2,0.4
			h16.9v-16h-15.4L831.9,98V80.2l12.9,0.4h15.2V69l-0.4-12.2h19.6l-0.3,11.6v12.1h23.7l12.6-0.4V98l-11.9-0.4h-24.5v16h23.7l5.2,7.4
			c-1.1,4.3-2.2,8.2-3.2,11.6c-1.1,3.5-3,8.2-5.8,14.1c-2.8,5.9-5.5,10.7-8.1,14.5l-5.3,7.9c2.6,2.2,5,4,7,5.4
			c2,1.4,5.6,3.3,10.6,5.7c5,2.4,10.7,4.3,17.1,5.8c-1.4,2.3-2.7,4.4-3.8,6.2c-1.1,1.8-3.1,5.7-6,11.6c-9.4-3.9-16.4-7.1-21.1-9.8
			c-4.7-2.6-10.2-6.7-16.6-12.3c-6,5-12.3,9.2-18.6,12.7c-6.4,3.5-11.1,5.7-14.1,6.7l-8.9,2.9c-0.7-1.5-1.5-3.2-2.4-5
			c-0.9-1.8-3.9-6.2-9-13.1c3.4-0.3,6.6-0.7,9.8-1.3c3.2-0.5,7.6-2,13.4-4.4C848.4,177.6,854.1,174,859.5,169.2z M886.4,130.3h-27.6
			c2.7,8.4,5.3,14.3,7.8,17.7l5.9,8.7c3.2-4.4,5.7-8.3,7.6-11.5C882,141.9,884.1,136.9,886.4,130.3z"/>
	</g>
	<g>
		<g>
			<path class="st0" d="M146.7,49.7c-6.2-0.9-12.6-1.4-19-1.4c-2.3,0-4.6,0.1-6.8,0.2c-0.7,0-1.3,0.1-2,0.1
				c-1.6,0.1-3.2,0.2-4.7,0.4c-0.8,0.1-1.6,0.2-2.4,0.3c-1.4,0.2-2.8,0.4-4.1,0.6c-0.9,0.1-1.8,0.3-2.6,0.5
				c-1.3,0.2-2.6,0.5-3.8,0.8c-0.9,0.2-1.8,0.4-2.7,0.6c-1.2,0.3-2.4,0.6-3.7,0.9c-0.9,0.2-1.8,0.5-2.7,0.8
				c-1.2,0.3-2.3,0.7-3.5,1.1c-0.9,0.3-1.8,0.6-2.7,0.9c-1.1,0.4-2.2,0.8-3.4,1.3c-0.9,0.3-1.8,0.7-2.7,1.1
				c-1.1,0.5-2.2,0.9-3.2,1.4c-0.9,0.4-1.8,0.8-2.7,1.2c-1,0.5-2,1-3,1.5c-0.9,0.5-1.8,0.9-2.7,1.4c-0.7,0.4-1.4,0.8-2.1,1.2
				c-2.3,1.3-4.6,2.7-6.8,4.2c-0.5,0.3-1,0.6-1.5,1c-1.2,0.8-2.4,1.7-3.6,2.5c-0.5,0.4-1,0.7-1.5,1.1c-1.2,0.9-2.4,1.8-3.5,2.8
				c-0.4,0.3-0.9,0.7-1.3,1c-1.2,1-2.4,2-3.6,3.1c-0.3,0.3-0.7,0.6-1,0.9c-1.2,1.1-2.5,2.3-3.7,3.5c-0.2,0.2-0.4,0.4-0.6,0.6
				c-1.3,1.3-2.6,2.7-3.8,4c0,0,0,0-0.1,0.1c-20.1,22.2-32.4,51.7-32.4,84c0,62.3,45.6,113.9,105.1,123.4l5.1-29.1
				c-1.1-0.2-2.1-0.4-3.2-0.6c-0.9-0.2-1.9-0.4-2.8-0.6c-1.9-0.4-3.8-0.9-5.7-1.5c-1.1-0.3-2.2-0.6-3.3-1c-1.6-0.5-3.1-1.1-4.6-1.7
				c-1.3-0.5-2.7-1-4-1.6c-1.1-0.5-2.1-1-3.2-1.6c-1.7-0.8-3.3-1.6-4.9-2.5c0,0-0.1-0.1-0.1-0.1C50,239,29.7,204.8,32.5,166.1
				c3.4-46.1,40.5-83.8,86.6-87.7c37.9-3.3,71.5,15.7,89.6,45.2c0.2,0.3,0.4,0.6,0.6,1c1.1,1.9,2.2,3.9,3.3,5.9
				c0.3,0.6,0.6,1.3,0.9,1.9c0.9,1.8,1.7,3.6,2.5,5.5c0.4,1,0.7,2,1.1,3c0.6,1.6,1.2,3.3,1.7,4.9c0.7,2.3,1.3,4.6,1.8,6.9
				c1.5,6.6,2.3,13.5,2.3,20.6c0,3.7-0.6,10.9-0.6,10.9c-1.9,17.1-8.3,32.7-18,45.8c-10.8,14.7-26.3,25.2-43.3,31.8
				c-5.9,2.3-12.4,4.5-17.3,5.3l-1.3,7.5c0,0,0,0,0,0l-4.1,23.1c64.1-5.3,114.5-59,114.5-124.5C252.7,110.7,206.7,58.8,146.7,49.7z"
				/>
		</g>
		<g>
			
				<ellipse transform="matrix(0.9871 -0.1602 0.1602 0.9871 -2.5814 3.0341)" class="st0" cx="17.5" cy="17.5" rx="17.5" ry="17.5"/>
		</g>
		<g>
			<path class="st0" d="M32.6,48.2h-30v81.9c6.4-18.5,16.7-35.2,30-49V48.2z"/>
		</g>
		<g>
			<path class="st0" d="M213.4,154.1h-81c-8.3,0-15,6.7-15,15c0,8.3,6.7,15,15,15h25.9l-13.3,75.3c12.1-2.4,23.3-7.3,33-14.1
				l10.8-61.2h26.1c0.4-3.6,0.7-7.2,0.7-10.8C215.5,166.7,214.7,160.3,213.4,154.1z"/>
		</g>
	</g>
</g>
</svg>
